%!PS-Adobe-3.0 EPSF-3.0 
%%BoundingBox: 0 0 738 360
%%Pages: 0
%%Creator: LibreOffice 5.0
%%Title: none
%%CreationDate: none
%%LanguageLevel: 2
%%EndComments
%%BeginProlog
%%BeginResource: procset SDRes-Prolog 1.0 0
/b4_inc_state save def
/dict_count countdictstack def
/op_count count 1 sub def
userdict begin
0 setgray 0 setlinecap 1 setlinewidth 0 setlinejoin 10 setmiterlimit[] 0 setdash newpath
/languagelevel where {pop languagelevel 1 ne {false setstrokeadjust false setoverprint} if} if
/bdef {bind def} bind def
/c {setrgbcolor} bdef
/l {neg lineto} bdef
/rl {neg rlineto} bdef
/lc {setlinecap} bdef
/lj {setlinejoin} bdef
/lw {setlinewidth} bdef
/ml {setmiterlimit} bdef
/ld {setdash} bdef
/m {neg moveto} bdef
/ct {6 2 roll neg 6 2 roll neg 6 2 roll neg curveto} bdef
/r {rotate} bdef
/t {neg translate} bdef
/s {scale} bdef
/sw {show} bdef
/gs {gsave} bdef
/gr {grestore} bdef
/f {findfont dup length dict begin
{1 index /FID ne {def} {pop pop} ifelse} forall /Encoding ISOLatin1Encoding def
currentdict end /NFont exch definefont pop /NFont findfont} bdef
/p {closepath} bdef
/sf {scalefont setfont} bdef
/ef {eofill}bdef
/pc {closepath stroke}bdef
/ps {stroke}bdef
/pum {matrix currentmatrix}bdef
/pom {setmatrix}bdef
/bs {/aString exch def /nXOfs exch def /nWidth exch def currentpoint nXOfs 0 rmoveto pum nWidth aString stringwidth pop div 1 scale aString show pom moveto} bdef
%%EndResource
%%EndProlog
%%BeginSetup
%%EndSetup
%%Page: 1 1
%%BeginPageSetup
%%EndPageSetup
pum
0.02834 0.02834 s 
0 -12701 t
/tm matrix currentmatrix def
tm setmatrix
-5080 -57787 t 
1 1 s 
1.000 1.000 1.000 c 18098 70487 m  5080 70487 l  5080 57787 l  31115 57787 l 
31115 70487 l  18098 70487 l  p ef
0 lw 1 lj 0.703 0.703 0.703 c 19216 67735 m  7838 67735 l  7838 59954 l 
30595 59954 l  30595 67735 l  19216 67735 l  pc
7838 67884 m  7838 67734 l  ps
7838 67884 m  7838 67734 l  ps
15424 67884 m  15424 67734 l  ps
15424 67884 m  15424 67734 l  ps
23009 67884 m  23009 67734 l  ps
23009 67884 m  23009 67734 l  ps
30595 67884 m  30595 67734 l  ps
30595 67884 m  30595 67734 l  ps
7838 67734 m  30595 67734 l  ps
7688 67734 m  7838 67734 l  ps
7688 67734 m  7838 67734 l  ps
7688 66869 m  7838 66869 l  ps
7688 66869 m  7838 66869 l  ps
7688 66004 m  7838 66004 l  ps
7688 66004 m  7838 66004 l  ps
7688 65140 m  7838 65140 l  ps
7688 65140 m  7838 65140 l  ps
7688 64275 m  7838 64275 l  ps
7688 64275 m  7838 64275 l  ps
7688 63411 m  7838 63411 l  ps
7688 63411 m  7838 63411 l  ps
7688 62547 m  7838 62547 l  ps
7688 62547 m  7838 62547 l  ps
7688 61682 m  7838 61682 l  ps
7688 61682 m  7838 61682 l  ps
7688 60817 m  7838 60817 l  ps
7688 60817 m  7838 60817 l  ps
7688 59953 m  7838 59953 l  ps
7688 59953 m  7838 59953 l  ps
7838 67734 m  7838 59953 l  ps
0.203 0.203 0.203 c 24905 67734 m  28698 67734 l  28698 65140 l  24905 65140 l 
24905 67734 l  p ef
17320 67734 m  21112 67734 l  21112 60817 l  17320 60817 l  17320 67734 l 
p ef
pum
11168 68487 t
0.003 0.003 0.003 c 214 -161 m  214 0 l  162 0 l  162 -161 l  12 -389 l  70 -389 l 
188 -203 l  306 -389 l  364 -389 l  214 -161 l  p ef
394 -138 m  394 -122 396 -108 399 -95 ct 402 -82 407 -71 414 -61 ct 420 -52 429 -44 439 -39 ct 
450 -34 462 -31 477 -31 ct 499 -31 516 -36 529 -44 ct 542 -53 551 -64 555 -77 ct 
599 -65 l  596 -56 591 -48 586 -40 ct 580 -31 572 -24 563 -17 ct 554 -10 542 -5 528 0 ct 
514 4 497 6 477 6 ct 433 6 400 -7 377 -33 ct 353 -60 342 -99 342 -151 ct 342 -179 345 -202 352 -222 ct 
359 -241 369 -257 381 -269 ct 393 -281 407 -290 423 -296 ct 440 -301 457 -304 475 -304 ct 
500 -304 521 -300 538 -292 ct 555 -283 568 -272 578 -258 ct 589 -244 596 -227 600 -207 ct 
604 -188 607 -167 607 -145 ct 607 -138 l  394 -138 l  p
555 -176 m  553 -208 545 -231 531 -245 ct 518 -260 499 -267 474 -267 ct 466 -267 457 -266 448 -263 ct 
439 -260 431 -256 423 -249 ct 416 -242 409 -233 404 -221 ct 398 -209 395 -194 395 -176 ct 
555 -176 l  p ef
897 -82 m  897 -68 894 -56 889 -45 ct 883 -34 875 -24 865 -17 ct 855 -10 842 -4 827 0 ct 
812 4 795 6 776 6 ct 758 6 743 5 729 2 ct 715 -1 703 -5 693 -11 ct 682 -17 673 -24 666 -34 ct 
659 -44 654 -56 651 -70 ct 694 -78 l  699 -62 707 -50 721 -43 ct 734 -36 752 -32 776 -32 ct 
786 -32 796 -33 805 -34 ct 814 -35 822 -38 828 -42 ct 834 -45 839 -50 843 -56 ct 
847 -62 848 -69 848 -78 ct 848 -87 846 -95 842 -100 ct 838 -106 832 -111 824 -115 ct 
817 -119 808 -122 797 -125 ct 786 -128 775 -131 762 -134 ct 750 -137 738 -141 726 -145 ct 
714 -149 704 -154 694 -160 ct 685 -166 677 -174 671 -184 ct 665 -193 663 -205 663 -219 ct 
663 -246 672 -267 692 -281 ct 711 -295 739 -303 776 -303 ct 809 -303 835 -297 855 -285 ct 
874 -274 886 -255 891 -229 ct 847 -224 l  845 -232 842 -238 838 -243 ct 833 -249 828 -253 822 -256 ct 
815 -259 808 -262 801 -263 ct 793 -264 785 -265 776 -265 ct 754 -265 737 -262 727 -255 ct 
716 -248 711 -238 711 -224 ct 711 -216 713 -209 717 -204 ct 721 -199 726 -194 733 -191 ct 
740 -187 749 -184 759 -181 ct 769 -179 779 -176 791 -173 ct 799 -171 807 -169 816 -166 ct 
824 -164 832 -161 840 -158 ct 848 -155 855 -151 862 -147 ct 869 -143 875 -137 880 -131 ct 
885 -125 889 -118 892 -110 ct 895 -102 897 -93 897 -82 ct p ef
pom
pum
16888 68487 t
52 0 m  52 -389 l  105 -389 l  105 0 l  52 0 l  p ef
386 0 m  386 -189 l  386 -204 385 -216 383 -226 ct 381 -235 377 -243 373 -249 ct 
368 -255 362 -259 354 -262 ct 346 -264 336 -266 325 -266 ct 313 -266 302 -264 293 -259 ct 
284 -255 275 -249 269 -242 ct 262 -234 257 -224 253 -213 ct 250 -201 248 -188 248 -173 ct 
248 0 l  198 0 l  198 -235 l  198 -242 198 -248 198 -255 ct 198 -262 198 -269 198 -275 ct 
197 -281 197 -286 197 -291 ct 197 -295 197 -297 196 -297 ct 243 -297 l  243 -296 244 -294 244 -290 ct 
244 -286 244 -282 245 -276 ct 245 -271 245 -266 245 -261 ct 245 -256 245 -251 245 -247 ct 
246 -247 l  251 -256 256 -264 262 -271 ct 268 -278 274 -284 282 -289 ct 289 -294 298 -297 308 -300 ct 
317 -303 329 -304 342 -304 ct 358 -304 372 -302 384 -298 ct 396 -294 406 -288 414 -279 ct 
421 -271 427 -260 431 -246 ct 434 -233 436 -217 436 -199 ct 436 0 l  386 0 l 
p ef
897 -82 m  897 -68 894 -56 889 -45 ct 883 -34 875 -24 865 -17 ct 855 -10 842 -4 827 0 ct 
812 4 795 6 776 6 ct 758 6 743 5 729 2 ct 715 -1 703 -5 693 -11 ct 682 -17 673 -24 666 -34 ct 
659 -44 654 -56 651 -70 ct 694 -78 l  699 -62 707 -50 721 -43 ct 734 -36 752 -32 776 -32 ct 
786 -32 796 -33 805 -34 ct 814 -35 822 -38 828 -42 ct 834 -45 839 -50 843 -56 ct 
847 -62 848 -69 848 -78 ct 848 -87 846 -95 842 -100 ct 838 -106 832 -111 824 -115 ct 
817 -119 808 -122 797 -125 ct 786 -128 775 -131 762 -134 ct 750 -137 738 -141 726 -145 ct 
714 -149 704 -154 694 -160 ct 685 -166 677 -174 671 -184 ct 665 -193 663 -205 663 -219 ct 
663 -246 672 -267 692 -281 ct 711 -295 739 -303 776 -303 ct 809 -303 835 -297 855 -285 ct 
874 -274 886 -255 891 -229 ct 847 -224 l  845 -232 842 -238 838 -243 ct 833 -249 828 -253 822 -256 ct 
815 -259 808 -262 801 -263 ct 793 -264 785 -265 776 -265 ct 754 -265 737 -262 727 -255 ct 
716 -248 711 -238 711 -224 ct 711 -216 713 -209 717 -204 ct 721 -199 726 -194 733 -191 ct 
740 -187 749 -184 759 -181 ct 769 -179 779 -176 791 -173 ct 799 -171 807 -169 816 -166 ct 
824 -164 832 -161 840 -158 ct 848 -155 855 -151 862 -147 ct 869 -143 875 -137 880 -131 ct 
885 -125 889 -118 892 -110 ct 895 -102 897 -93 897 -82 ct p ef
1216 -149 m  1216 -97 1205 -58 1182 -32 ct 1159 -7 1125 6 1082 6 ct 1061 6 1042 3 1026 -3 ct 
1010 -10 996 -19 985 -32 ct 973 -45 965 -61 959 -81 ct 953 -100 950 -123 950 -149 ct 
950 -252 994 -304 1083 -304 ct 1106 -304 1126 -300 1143 -294 ct 1160 -288 1174 -278 1184 -265 ct 
1195 -252 1203 -236 1208 -217 ct 1213 -197 1216 -175 1216 -149 ct p
1164 -149 m  1164 -172 1162 -191 1159 -207 ct 1155 -222 1150 -234 1143 -243 ct 
1136 -252 1128 -258 1118 -262 ct 1108 -265 1097 -267 1084 -267 ct 1071 -267 1060 -265 1050 -261 ct 
1040 -258 1031 -251 1024 -242 ct 1017 -233 1011 -221 1007 -206 ct 1004 -191 1002 -172 1002 -149 ct 
1002 -126 1004 -107 1008 -92 ct 1012 -76 1017 -64 1024 -55 ct 1032 -46 1040 -40 1050 -36 ct 
1059 -33 1070 -31 1081 -31 ct 1094 -31 1105 -32 1115 -36 ct 1126 -40 1134 -46 1142 -55 ct 
1149 -64 1154 -76 1158 -91 ct 1162 -107 1164 -126 1164 -149 ct p ef
1456 0 m  1456 -189 l  1456 -204 1455 -216 1453 -226 ct 1451 -235 1448 -243 1444 -249 ct 
1439 -255 1434 -259 1427 -262 ct 1420 -264 1411 -266 1401 -266 ct 1391 -266 1381 -264 1373 -259 ct 
1364 -255 1357 -249 1351 -242 ct 1345 -234 1340 -224 1337 -213 ct 1334 -201 1332 -188 1332 -173 ct 
1332 0 l  1283 0 l  1283 -235 l  1283 -242 1283 -248 1283 -255 ct 1283 -262 1283 -269 1283 -275 ct 
1282 -281 1282 -286 1282 -291 ct 1282 -295 1282 -297 1281 -297 ct 1328 -297 l 
1328 -296 1329 -294 1329 -290 ct 1329 -286 1329 -282 1330 -276 ct 1330 -271 1330 -266 1330 -261 ct 
1330 -256 1330 -251 1330 -247 ct 1331 -247 l  1336 -256 1340 -264 1346 -271 ct 
1351 -278 1357 -284 1364 -289 ct 1371 -294 1378 -297 1387 -300 ct 1396 -303 1407 -304 1418 -304 ct 
1441 -304 1459 -300 1472 -290 ct 1485 -281 1494 -267 1499 -247 ct 1500 -247 l 
1505 -256 1509 -264 1515 -271 ct 1521 -278 1527 -284 1534 -289 ct 1542 -294 1550 -297 1559 -300 ct 
1568 -303 1579 -304 1590 -304 ct 1606 -304 1618 -302 1629 -298 ct 1640 -294 1649 -288 1656 -279 ct 
1663 -271 1668 -260 1672 -246 ct 1675 -233 1677 -217 1677 -199 ct 1677 0 l  1628 0 l 
1628 -189 l  1628 -204 1627 -216 1625 -226 ct 1623 -235 1620 -243 1616 -249 ct 
1611 -255 1606 -259 1599 -262 ct 1592 -264 1583 -266 1573 -266 ct 1563 -266 1553 -264 1545 -260 ct 
1536 -256 1529 -250 1523 -242 ct 1517 -234 1513 -225 1509 -213 ct 1506 -202 1505 -188 1505 -173 ct 
1505 0 l  1456 0 l  p ef
1796 -138 m  1796 -122 1798 -108 1801 -95 ct 1804 -82 1809 -71 1816 -61 ct 1822 -52 1831 -44 1841 -39 ct 
1852 -34 1864 -31 1879 -31 ct 1901 -31 1918 -36 1931 -44 ct 1944 -53 1953 -64 1957 -77 ct 
2001 -65 l  1998 -56 1993 -48 1988 -40 ct 1982 -31 1974 -24 1965 -17 ct 1956 -10 1944 -5 1930 0 ct 
1916 4 1899 6 1879 6 ct 1835 6 1802 -7 1779 -33 ct 1755 -60 1744 -99 1744 -151 ct 
1744 -179 1747 -202 1754 -222 ct 1761 -241 1771 -257 1783 -269 ct 1795 -281 1809 -290 1825 -296 ct 
1842 -301 1859 -304 1877 -304 ct 1902 -304 1923 -300 1940 -292 ct 1957 -283 1970 -272 1980 -258 ct 
1991 -244 1998 -227 2002 -207 ct 2006 -188 2009 -167 2009 -145 ct 2009 -138 l 
1796 -138 l  p
1957 -176 m  1955 -208 1947 -231 1933 -245 ct 1920 -260 1901 -267 1876 -267 ct 
1868 -267 1859 -266 1850 -263 ct 1841 -260 1833 -256 1825 -249 ct 1818 -242 1811 -233 1806 -221 ct 
1800 -209 1797 -194 1797 -176 ct 1957 -176 l  p ef
2458 -82 m  2458 -68 2455 -56 2450 -45 ct 2444 -34 2436 -24 2426 -17 ct 2416 -10 2403 -4 2388 0 ct 
2373 4 2356 6 2337 6 ct 2319 6 2304 5 2290 2 ct 2276 -1 2264 -5 2254 -11 ct 2243 -17 2234 -24 2227 -34 ct 
2220 -44 2215 -56 2212 -70 ct 2255 -78 l  2260 -62 2268 -50 2282 -43 ct 2295 -36 2313 -32 2337 -32 ct 
2347 -32 2357 -33 2366 -34 ct 2375 -35 2383 -38 2389 -42 ct 2395 -45 2400 -50 2404 -56 ct 
2408 -62 2409 -69 2409 -78 ct 2409 -87 2407 -95 2403 -100 ct 2399 -106 2393 -111 2385 -115 ct 
2378 -119 2369 -122 2358 -125 ct 2347 -128 2336 -131 2323 -134 ct 2311 -137 2299 -141 2287 -145 ct 
2275 -149 2265 -154 2255 -160 ct 2246 -166 2238 -174 2232 -184 ct 2226 -193 2224 -205 2224 -219 ct 
2224 -246 2233 -267 2253 -281 ct 2272 -295 2300 -303 2337 -303 ct 2370 -303 2396 -297 2416 -285 ct 
2435 -274 2447 -255 2452 -229 ct 2408 -224 l  2406 -232 2403 -238 2399 -243 ct 
2394 -249 2389 -253 2383 -256 ct 2376 -259 2369 -262 2362 -263 ct 2354 -264 2346 -265 2337 -265 ct 
2315 -265 2298 -262 2288 -255 ct 2277 -248 2272 -238 2272 -224 ct 2272 -216 2274 -209 2278 -204 ct 
2282 -199 2287 -194 2294 -191 ct 2301 -187 2310 -184 2320 -181 ct 2330 -179 2340 -176 2352 -173 ct 
2360 -171 2368 -169 2377 -166 ct 2385 -164 2393 -161 2401 -158 ct 2409 -155 2416 -151 2423 -147 ct 
2430 -143 2436 -137 2441 -131 ct 2446 -125 2450 -118 2453 -110 ct 2456 -102 2458 -93 2458 -82 ct 
p ef
2563 -150 m  2563 -133 2564 -117 2566 -103 ct 2569 -89 2573 -76 2579 -66 ct 
2585 -56 2593 -47 2602 -42 ct 2612 -36 2624 -33 2638 -33 ct 2656 -33 2670 -38 2682 -47 ct 
2694 -56 2701 -71 2704 -90 ct 2754 -90 l  2752 -78 2749 -65 2743 -54 ct 2738 -42 2730 -32 2721 -23 ct 
2711 -14 2700 -7 2686 -2 ct 2673 3 2657 6 2639 6 ct 2616 6 2596 2 2580 -6 ct 2563 -14 2550 -25 2540 -39 ct 
2530 -53 2522 -69 2518 -88 ct 2513 -107 2511 -127 2511 -149 ct 2511 -169 2513 -187 2516 -202 ct 
2519 -218 2524 -231 2530 -243 ct 2536 -254 2543 -264 2551 -272 ct 2559 -280 2568 -286 2577 -291 ct 
2587 -295 2597 -299 2607 -301 ct 2618 -303 2628 -304 2639 -304 ct 2655 -304 2670 -302 2683 -297 ct 
2696 -292 2708 -286 2717 -278 ct 2727 -270 2734 -261 2740 -250 ct 2746 -239 2750 -227 2752 -215 ct 
2702 -211 l  2699 -227 2692 -241 2682 -250 ct 2672 -260 2657 -265 2637 -265 ct 
2623 -265 2611 -263 2602 -258 ct 2593 -253 2585 -246 2579 -237 ct 2573 -227 2569 -215 2566 -201 ct 
2564 -187 2563 -170 2563 -150 ct p ef
2854 -138 m  2854 -122 2856 -108 2859 -95 ct 2862 -82 2867 -71 2874 -61 ct 2880 -52 2889 -44 2899 -39 ct 
2910 -34 2922 -31 2937 -31 ct 2959 -31 2976 -36 2989 -44 ct 3002 -53 3011 -64 3015 -77 ct 
3059 -65 l  3056 -56 3051 -48 3046 -40 ct 3040 -31 3032 -24 3023 -17 ct 3014 -10 3002 -5 2988 0 ct 
2974 4 2957 6 2937 6 ct 2893 6 2860 -7 2837 -33 ct 2813 -60 2802 -99 2802 -151 ct 
2802 -179 2805 -202 2812 -222 ct 2819 -241 2829 -257 2841 -269 ct 2853 -281 2867 -290 2883 -296 ct 
2900 -301 2917 -304 2935 -304 ct 2960 -304 2981 -300 2998 -292 ct 3015 -283 3028 -272 3038 -258 ct 
3049 -244 3056 -227 3060 -207 ct 3064 -188 3067 -167 3067 -145 ct 3067 -138 l 
2854 -138 l  p
3015 -176 m  3013 -208 3005 -231 2991 -245 ct 2978 -260 2959 -267 2934 -267 ct 
2926 -267 2917 -266 2908 -263 ct 2899 -260 2891 -256 2883 -249 ct 2876 -242 2869 -233 2864 -221 ct 
2858 -209 2855 -194 2855 -176 ct 3015 -176 l  p ef
3323 0 m  3323 -189 l  3323 -204 3322 -216 3320 -226 ct 3318 -235 3314 -243 3310 -249 ct 
3305 -255 3299 -259 3291 -262 ct 3283 -264 3273 -266 3262 -266 ct 3250 -266 3239 -264 3230 -259 ct 
3221 -255 3212 -249 3206 -242 ct 3199 -234 3194 -224 3190 -213 ct 3187 -201 3185 -188 3185 -173 ct 
3185 0 l  3135 0 l  3135 -235 l  3135 -242 3135 -248 3135 -255 ct 3135 -262 3135 -269 3135 -275 ct 
3134 -281 3134 -286 3134 -291 ct 3134 -295 3134 -297 3133 -297 ct 3180 -297 l 
3180 -296 3181 -294 3181 -290 ct 3181 -286 3181 -282 3182 -276 ct 3182 -271 3182 -266 3182 -261 ct 
3182 -256 3182 -251 3182 -247 ct 3183 -247 l  3188 -256 3193 -264 3199 -271 ct 
3205 -278 3211 -284 3219 -289 ct 3226 -294 3235 -297 3245 -300 ct 3254 -303 3266 -304 3279 -304 ct 
3295 -304 3309 -302 3321 -298 ct 3333 -294 3343 -288 3351 -279 ct 3358 -271 3364 -260 3368 -246 ct 
3371 -233 3373 -217 3373 -199 ct 3373 0 l  3323 0 l  p ef
3527 6 m  3497 6 3475 -2 3460 -18 ct 3444 -34 3437 -56 3437 -83 ct 3437 -103 3441 -119 3448 -132 ct 
3456 -145 3465 -154 3477 -162 ct 3489 -169 3503 -174 3518 -177 ct 3534 -179 3550 -181 3566 -181 ct 
3632 -181 l  3632 -197 l  3632 -210 3631 -220 3629 -229 ct 3626 -238 3622 -245 3617 -250 ct 
3611 -256 3605 -260 3597 -262 ct 3589 -265 3579 -266 3569 -266 ct 3559 -266 3550 -265 3543 -264 ct 
3535 -263 3528 -260 3523 -256 ct 3517 -253 3512 -248 3509 -242 ct 3505 -236 3503 -228 3502 -218 ct 
3450 -223 l  3452 -235 3456 -246 3461 -256 ct 3466 -265 3473 -274 3483 -281 ct 
3492 -288 3504 -294 3518 -298 ct 3532 -302 3550 -304 3570 -304 ct 3607 -304 3635 -295 3654 -278 ct 
3673 -261 3683 -236 3683 -203 ct 3683 -74 l  3683 -60 3685 -49 3688 -41 ct 3692 -34 3700 -30 3710 -30 ct 
3713 -30 3716 -30 3719 -31 ct 3721 -31 3724 -31 3727 -32 ct 3727 -1 l  3720 0 3714 2 3708 2 ct 
3702 3 3695 3 3688 3 ct 3679 3 3671 2 3664 0 ct 3658 -3 3652 -7 3648 -12 ct 3644 -17 3640 -23 3638 -30 ct 
3636 -38 3635 -47 3634 -57 ct 3632 -57 l  3627 -47 3621 -38 3615 -31 ct 3609 -23 3601 -16 3593 -11 ct 
3584 -6 3575 -1 3564 2 ct 3553 5 3541 6 3527 6 ct p
3538 -31 m  3554 -31 3568 -34 3580 -40 ct 3592 -46 3601 -53 3609 -62 ct 3617 -71 3623 -81 3627 -91 ct 
3631 -102 3632 -112 3632 -122 ct 3632 -146 l  3578 -146 l  3566 -146 3555 -145 3544 -144 ct 
3533 -142 3523 -139 3515 -134 ct 3507 -130 3500 -123 3495 -115 ct 3490 -107 3488 -96 3488 -82 ct 
3488 -66 3492 -53 3501 -45 ct 3510 -36 3522 -31 3538 -31 ct p ef
3770 0 m  3770 -229 l  3770 -235 3770 -242 3770 -248 ct 3770 -255 3770 -261 3770 -267 ct 
3769 -273 3769 -279 3769 -284 ct 3769 -289 3769 -294 3768 -298 ct 3815 -298 l 
3815 -294 3816 -289 3816 -284 ct 3816 -279 3817 -273 3817 -267 ct 3817 -262 3817 -256 3817 -251 ct 
3817 -246 3817 -241 3817 -238 ct 3819 -238 l  3822 -249 3826 -259 3830 -267 ct 
3834 -276 3838 -282 3844 -288 ct 3849 -293 3855 -297 3863 -300 ct 3870 -303 3879 -304 3889 -304 ct 
3893 -304 3897 -304 3901 -303 ct 3905 -302 3907 -302 3909 -301 ct 3909 -256 l 
3906 -257 3902 -257 3898 -258 ct 3893 -258 3889 -258 3883 -258 ct 3872 -258 3862 -256 3854 -251 ct 
3846 -246 3839 -238 3834 -229 ct 3829 -220 3826 -209 3823 -197 ct 3821 -184 3820 -170 3820 -156 ct 
3820 0 l  3770 0 l  p ef
3954 -362 m  3954 -409 l  4003 -409 l  4003 -362 l  3954 -362 l  p
3954 0 m  3954 -298 l  4003 -298 l  4003 0 l  3954 0 l  p ef
4338 -149 m  4338 -97 4327 -58 4304 -32 ct 4281 -7 4247 6 4204 6 ct 4183 6 4164 3 4148 -3 ct 
4132 -10 4118 -19 4107 -32 ct 4095 -45 4087 -61 4081 -81 ct 4075 -100 4072 -123 4072 -149 ct 
4072 -252 4116 -304 4205 -304 ct 4228 -304 4248 -300 4265 -294 ct 4282 -288 4296 -278 4306 -265 ct 
4317 -252 4325 -236 4330 -217 ct 4335 -197 4338 -175 4338 -149 ct p
4286 -149 m  4286 -172 4284 -191 4281 -207 ct 4277 -222 4272 -234 4265 -243 ct 
4258 -252 4250 -258 4240 -262 ct 4230 -265 4219 -267 4206 -267 ct 4193 -267 4182 -265 4172 -261 ct 
4162 -258 4153 -251 4146 -242 ct 4139 -233 4133 -221 4129 -206 ct 4126 -191 4124 -172 4124 -149 ct 
4124 -126 4126 -107 4130 -92 ct 4134 -76 4139 -64 4146 -55 ct 4154 -46 4162 -40 4172 -36 ct 
4181 -33 4192 -31 4203 -31 ct 4216 -31 4227 -32 4237 -36 ct 4248 -40 4256 -46 4264 -55 ct 
4271 -64 4276 -76 4280 -91 ct 4284 -107 4286 -126 4286 -149 ct p ef
4628 -82 m  4628 -68 4625 -56 4620 -45 ct 4614 -34 4606 -24 4596 -17 ct 4586 -10 4573 -4 4558 0 ct 
4543 4 4526 6 4507 6 ct 4489 6 4474 5 4460 2 ct 4446 -1 4434 -5 4424 -11 ct 4413 -17 4404 -24 4397 -34 ct 
4390 -44 4385 -56 4382 -70 ct 4425 -78 l  4430 -62 4438 -50 4452 -43 ct 4465 -36 4483 -32 4507 -32 ct 
4517 -32 4527 -33 4536 -34 ct 4545 -35 4553 -38 4559 -42 ct 4565 -45 4570 -50 4574 -56 ct 
4578 -62 4579 -69 4579 -78 ct 4579 -87 4577 -95 4573 -100 ct 4569 -106 4563 -111 4555 -115 ct 
4548 -119 4539 -122 4528 -125 ct 4517 -128 4506 -131 4493 -134 ct 4481 -137 4469 -141 4457 -145 ct 
4445 -149 4435 -154 4425 -160 ct 4416 -166 4408 -174 4402 -184 ct 4396 -193 4394 -205 4394 -219 ct 
4394 -246 4403 -267 4423 -281 ct 4442 -295 4470 -303 4507 -303 ct 4540 -303 4566 -297 4586 -285 ct 
4605 -274 4617 -255 4622 -229 ct 4578 -224 l  4576 -232 4573 -238 4569 -243 ct 
4564 -249 4559 -253 4553 -256 ct 4546 -259 4539 -262 4532 -263 ct 4524 -264 4516 -265 4507 -265 ct 
4485 -265 4468 -262 4458 -255 ct 4447 -248 4442 -238 4442 -224 ct 4442 -216 4444 -209 4448 -204 ct 
4452 -199 4457 -194 4464 -191 ct 4471 -187 4480 -184 4490 -181 ct 4500 -179 4510 -176 4522 -173 ct 
4530 -171 4538 -169 4547 -166 ct 4555 -164 4563 -161 4571 -158 ct 4579 -155 4586 -151 4593 -147 ct 
4600 -143 4606 -137 4611 -131 ct 4616 -125 4620 -118 4623 -110 ct 4626 -102 4628 -93 4628 -82 ct 
p ef
pom
pum
26446 68487 t
298 0 m  90 -331 l  91 -322 91 -313 92 -304 ct 92 -297 92 -289 93 -280 ct 93 -272 93 -265 93 -258 ct 
93 0 l  46 0 l  46 -389 l  107 -389 l  317 -55 l  317 -64 316 -73 316 -82 ct 
315 -90 315 -99 315 -108 ct 314 -117 314 -125 314 -134 ct 314 -389 l  361 -389 l 
361 0 l  298 0 l  p ef
687 -149 m  687 -97 676 -58 653 -32 ct 630 -7 596 6 553 6 ct 532 6 513 3 497 -3 ct 
481 -10 467 -19 456 -32 ct 444 -45 436 -61 430 -81 ct 424 -100 421 -123 421 -149 ct 
421 -252 465 -304 554 -304 ct 577 -304 597 -300 614 -294 ct 631 -288 645 -278 655 -265 ct 
666 -252 674 -236 679 -217 ct 684 -197 687 -175 687 -149 ct p
635 -149 m  635 -172 633 -191 630 -207 ct 626 -222 621 -234 614 -243 ct 607 -252 599 -258 589 -262 ct 
579 -265 568 -267 555 -267 ct 542 -267 531 -265 521 -261 ct 511 -258 502 -251 495 -242 ct 
488 -233 482 -221 478 -206 ct 475 -191 473 -172 473 -149 ct 473 -126 475 -107 479 -92 ct 
483 -76 488 -64 495 -55 ct 503 -46 511 -40 521 -36 ct 530 -33 541 -31 552 -31 ct 
565 -31 576 -32 586 -36 ct 597 -40 605 -46 613 -55 ct 620 -64 625 -76 629 -91 ct 
633 -107 635 -126 635 -149 ct p ef
pom
pum
7270 67934 t
292 -194 m  292 -157 288 -125 281 -100 ct 274 -74 264 -54 252 -38 ct 240 -22 226 -11 209 -4 ct 
193 3 175 6 156 6 ct 137 6 120 3 103 -4 ct 87 -11 73 -22 61 -38 ct 49 -54 39 -74 32 -100 ct 
25 -125 22 -156 22 -194 ct 22 -233 25 -266 32 -291 ct 39 -317 49 -337 61 -353 ct 
73 -368 87 -379 104 -385 ct 120 -391 138 -394 158 -394 ct 176 -394 194 -391 210 -385 ct 
226 -379 240 -368 253 -353 ct 265 -337 274 -317 281 -291 ct 288 -266 292 -233 292 -194 ct 
p
241 -194 m  241 -225 239 -251 236 -271 ct 232 -292 227 -308 219 -320 ct 212 -332 204 -341 193 -346 ct 
183 -351 171 -354 158 -354 ct 144 -354 132 -351 121 -346 ct 110 -341 101 -332 94 -320 ct 
87 -308 81 -291 78 -271 ct 74 -250 72 -225 72 -194 ct 72 -164 74 -139 78 -119 ct 
82 -98 87 -82 94 -69 ct 102 -57 110 -48 121 -43 ct 131 -37 143 -35 157 -35 ct 170 -35 181 -37 192 -43 ct 
202 -48 211 -57 219 -69 ct 226 -82 231 -98 235 -119 ct 239 -139 241 -164 241 -194 ct 
p ef
pom
pum
7270 67069 t
43 0 m  43 -42 l  142 -42 l  142 -341 l  54 -278 l  54 -325 l  146 -389 l 
192 -389 l  192 -42 l  286 -42 l  286 0 l  43 0 l  p ef
pom
pum
7270 66204 t
28 0 m  28 -35 l  38 -57 49 -76 63 -92 ct 76 -109 90 -123 105 -137 ct 120 -150 135 -163 149 -174 ct 
164 -185 177 -197 189 -208 ct 201 -220 210 -232 217 -244 ct 225 -257 228 -271 228 -287 ct 
228 -298 227 -307 223 -316 ct 220 -324 215 -331 209 -337 ct 203 -343 195 -347 187 -350 ct 
178 -353 168 -354 158 -354 ct 148 -354 138 -353 130 -350 ct 121 -347 113 -343 106 -337 ct 
100 -332 94 -325 90 -317 ct 85 -309 83 -299 81 -288 ct 31 -293 l  32 -307 36 -320 42 -332 ct 
48 -345 57 -356 67 -365 ct 78 -374 91 -381 106 -387 ct 121 -392 138 -395 158 -395 ct 
177 -395 194 -393 209 -388 ct 224 -383 237 -377 247 -367 ct 258 -358 265 -347 271 -334 ct 
277 -321 279 -306 279 -288 ct 279 -275 277 -263 272 -251 ct 268 -239 261 -228 254 -217 ct 
246 -207 237 -196 226 -186 ct 216 -176 205 -167 194 -157 ct 183 -148 172 -138 160 -129 ct 
149 -120 138 -110 128 -101 ct 118 -92 109 -82 101 -72 ct 93 -63 87 -53 83 -42 ct 
285 -42 l  285 0 l  28 0 l  p ef
pom
pum
7270 65340 t
289 -107 m  289 -89 286 -73 280 -59 ct 274 -45 266 -33 255 -24 ct 244 -14 230 -7 214 -2 ct 
197 3 178 6 157 6 ct 133 6 113 3 97 -3 ct 80 -9 67 -17 56 -27 ct 45 -37 37 -48 32 -60 ct 
27 -73 23 -86 21 -99 ct 73 -104 l  74 -94 77 -84 81 -76 ct 85 -68 90 -60 97 -54 ct 
104 -48 112 -43 122 -40 ct 132 -37 144 -35 157 -35 ct 182 -35 202 -41 216 -54 ct 
230 -66 237 -84 237 -109 ct 237 -123 234 -134 228 -143 ct 222 -152 214 -159 204 -164 ct 
195 -169 184 -172 173 -173 ct 162 -175 152 -176 143 -176 ct 115 -176 l  115 -219 l 
142 -219 l  151 -219 161 -220 171 -222 ct 181 -224 190 -227 198 -232 ct 207 -237 214 -244 219 -253 ct 
225 -262 227 -273 227 -286 ct 227 -307 221 -323 209 -335 ct 197 -347 179 -353 155 -353 ct 
133 -353 115 -348 101 -336 ct 88 -325 80 -309 78 -289 ct 28 -293 l  30 -310 35 -325 42 -337 ct 
49 -350 59 -361 70 -369 ct 81 -377 94 -384 109 -388 ct 123 -392 139 -394 155 -394 ct 
177 -394 195 -391 211 -386 ct 227 -380 239 -373 249 -364 ct 259 -355 266 -344 271 -331 ct 
276 -319 278 -305 278 -291 ct 278 -280 277 -269 273 -259 ct 270 -249 265 -240 259 -232 ct 
252 -225 244 -218 234 -212 ct 223 -206 211 -202 197 -199 ct 197 -198 l  213 -196 226 -193 238 -187 ct 
249 -182 259 -175 266 -167 ct 274 -159 279 -150 283 -140 ct 287 -129 289 -118 289 -107 ct 
p ef
pom
pum
7270 64475 t
243 -88 m  243 0 l  196 0 l  196 -88 l  13 -88 l  13 -127 l  191 -389 l 
243 -389 l  243 -127 l  297 -127 l  297 -88 l  243 -88 l  p
196 -333 m  195 -332 195 -330 193 -327 ct 192 -324 190 -321 188 -318 ct 186 -315 184 -311 182 -308 ct 
181 -305 179 -302 177 -300 ct 78 -152 l  77 -151 76 -149 74 -146 ct 72 -144 70 -141 69 -139 ct 
67 -136 65 -134 63 -132 ct 61 -129 60 -128 59 -128 ct 196 -128 l  196 -333 l 
p ef
pom
pum
7270 63610 t
290 -126 m  290 -107 287 -89 281 -73 ct 275 -56 267 -43 255 -31 ct 243 -19 229 -10 212 -4 ct 
195 3 175 6 152 6 ct 132 6 114 4 99 -1 ct 84 -6 71 -13 61 -21 ct 50 -29 42 -39 36 -50 ct 
30 -62 25 -74 23 -86 ct 73 -92 l  75 -85 78 -78 81 -71 ct 85 -64 90 -58 96 -52 ct 
103 -47 110 -43 120 -39 ct 129 -36 140 -35 153 -35 ct 166 -35 178 -37 188 -40 ct 
199 -44 208 -50 215 -58 ct 223 -66 228 -75 232 -86 ct 236 -98 238 -111 238 -125 ct 
238 -137 237 -148 233 -158 ct 229 -168 223 -177 216 -184 ct 209 -191 200 -197 190 -201 ct 
180 -205 168 -207 155 -207 ct 146 -207 139 -206 132 -205 ct 125 -203 118 -201 112 -199 ct 
106 -196 101 -193 96 -190 ct 91 -186 87 -183 82 -179 ct 34 -179 l  47 -388 l 
267 -388 l  267 -346 l  92 -346 l  85 -223 l  93 -230 104 -235 118 -240 ct 
131 -245 147 -248 165 -248 ct 184 -248 201 -245 217 -239 ct 232 -233 245 -225 256 -214 ct 
267 -203 275 -190 281 -175 ct 287 -160 290 -144 290 -126 ct p ef
pom
pum
7270 62746 t
289 -127 m  289 -107 286 -89 281 -73 ct 275 -57 267 -43 257 -31 ct 246 -19 233 -10 218 -4 ct 
202 3 184 6 164 6 ct 141 6 121 2 104 -7 ct 87 -16 73 -28 62 -44 ct 51 -61 43 -81 37 -104 ct 
31 -128 29 -155 29 -185 ct 29 -219 32 -250 38 -276 ct 44 -302 54 -324 66 -341 ct 
77 -359 92 -372 109 -381 ct 126 -390 146 -394 167 -394 ct 181 -394 193 -393 205 -390 ct 
216 -387 227 -383 236 -376 ct 246 -370 254 -362 261 -352 ct 268 -342 274 -330 278 -315 ct 
231 -306 l  226 -323 217 -335 206 -343 ct 195 -350 182 -354 167 -354 ct 153 -354 141 -351 130 -344 ct 
119 -338 110 -328 102 -315 ct 94 -303 88 -286 84 -267 ct 80 -248 78 -225 78 -200 ct 
87 -216 100 -229 116 -238 ct 132 -247 151 -251 172 -251 ct 190 -251 206 -248 220 -242 ct 
234 -237 247 -228 257 -218 ct 267 -207 275 -194 280 -179 ct 286 -163 289 -146 289 -127 ct 
p
238 -125 m  238 -138 237 -150 234 -161 ct 230 -172 225 -181 219 -189 ct 212 -196 204 -202 194 -206 ct 
184 -211 173 -213 160 -213 ct 151 -213 142 -211 133 -209 ct 124 -206 116 -202 108 -196 ct 
101 -190 95 -182 90 -172 ct 85 -162 83 -150 83 -136 ct 83 -122 85 -109 88 -96 ct 
92 -84 97 -73 104 -64 ct 111 -55 119 -47 129 -42 ct 139 -37 150 -34 162 -34 ct 
174 -34 185 -36 194 -40 ct 203 -44 212 -50 218 -58 ct 225 -66 230 -76 233 -87 ct 
237 -98 238 -111 238 -125 ct p ef
pom
pum
7270 61881 t
285 -348 m  266 -318 248 -290 232 -262 ct 215 -235 201 -207 189 -179 ct 178 -151 169 -123 162 -93 ct 
156 -64 152 -33 152 1 ct 101 1 l  101 -31 104 -61 112 -91 ct 119 -121 129 -150 141 -179 ct 
154 -208 168 -236 185 -264 ct 201 -292 219 -319 237 -346 ct 29 -346 l  29 -388 l 
285 -388 l  285 -348 l  p ef
pom
pum
7270 61016 t
289 -108 m  289 -92 287 -76 281 -62 ct 276 -48 268 -36 257 -26 ct 247 -16 233 -8 216 -3 ct 
199 3 180 6 157 6 ct 134 6 115 3 98 -3 ct 81 -8 68 -16 57 -26 ct 46 -36 38 -48 32 -62 ct 
27 -76 25 -91 25 -108 ct 25 -122 27 -134 31 -145 ct 35 -156 41 -166 48 -174 ct 
56 -182 64 -188 73 -193 ct 82 -198 92 -201 102 -203 ct 102 -204 l  91 -207 81 -211 73 -217 ct 
64 -222 57 -229 51 -237 ct 46 -245 41 -254 38 -264 ct 35 -273 34 -284 34 -295 ct 
34 -308 36 -321 41 -333 ct 47 -345 54 -356 65 -365 ct 75 -374 88 -381 103 -386 ct 
118 -391 136 -394 156 -394 ct 177 -394 195 -391 211 -386 ct 226 -381 239 -373 249 -364 ct 
260 -355 267 -345 272 -333 ct 277 -320 280 -308 280 -294 ct 280 -283 278 -273 275 -263 ct 
272 -254 268 -245 262 -237 ct 256 -229 249 -222 240 -216 ct 232 -211 222 -207 211 -205 ct 
211 -204 l  222 -202 232 -198 242 -194 ct 251 -189 260 -182 267 -174 ct 274 -166 279 -157 283 -146 ct 
287 -135 289 -122 289 -108 ct p
228 -291 m  228 -301 227 -310 224 -318 ct 222 -326 218 -333 212 -339 ct 206 -345 199 -349 190 -352 ct 
181 -355 169 -357 156 -357 ct 143 -357 132 -355 123 -352 ct 114 -349 106 -345 101 -339 ct 
95 -333 91 -326 88 -318 ct 86 -310 84 -301 84 -291 ct 84 -284 85 -276 87 -268 ct 
89 -260 93 -252 98 -246 ct 104 -239 111 -234 120 -229 ct 130 -225 142 -223 156 -223 ct 
172 -223 185 -225 194 -229 ct 203 -234 211 -239 216 -246 ct 221 -252 224 -260 226 -268 ct 
227 -276 228 -284 228 -291 ct p
238 -113 m  238 -122 236 -131 234 -140 ct 231 -149 227 -157 221 -163 ct 214 -170 206 -175 195 -180 ct 
185 -184 172 -186 156 -186 ct 141 -186 129 -184 119 -180 ct 109 -175 100 -170 94 -163 ct 
88 -156 83 -148 80 -139 ct 77 -131 76 -121 76 -112 ct 76 -100 77 -89 80 -79 ct 
83 -69 88 -61 94 -53 ct 101 -46 109 -41 120 -37 ct 130 -33 143 -31 158 -31 ct 173 -31 185 -33 196 -37 ct 
206 -41 214 -46 220 -53 ct 227 -61 231 -69 234 -79 ct 236 -89 238 -100 238 -113 ct 
p ef
pom
pum
7270 60152 t
287 -202 m  287 -167 284 -137 277 -111 ct 271 -85 261 -63 249 -46 ct 237 -29 222 -16 205 -7 ct 
188 2 168 6 147 6 ct 132 6 118 4 106 1 ct 94 -2 84 -6 74 -13 ct 65 -19 57 -28 50 -38 ct 
44 -48 38 -61 34 -75 ct 82 -82 l  87 -66 95 -54 106 -46 ct 117 -38 131 -34 147 -34 ct 
161 -34 173 -37 184 -44 ct 195 -50 205 -59 212 -72 ct 220 -85 226 -101 231 -120 ct 
235 -139 238 -161 238 -187 ct 234 -178 229 -171 222 -164 ct 215 -157 208 -151 199 -146 ct 
191 -142 181 -138 172 -136 ct 162 -133 152 -132 142 -132 ct 124 -132 108 -135 94 -142 ct 
80 -148 67 -157 58 -168 ct 48 -180 40 -193 35 -209 ct 29 -226 26 -243 26 -263 ct 
26 -283 29 -301 35 -318 ct 41 -334 49 -347 60 -359 ct 71 -370 85 -379 101 -385 ct 
117 -391 135 -394 156 -394 ct 199 -394 231 -378 254 -346 ct 276 -314 287 -266 287 -202 ct 
p
233 -250 m  233 -264 231 -277 228 -290 ct 225 -303 219 -314 213 -323 ct 206 -333 198 -340 188 -346 ct 
178 -351 167 -354 154 -354 ct 142 -354 131 -352 122 -347 ct 112 -343 104 -337 97 -329 ct 
91 -321 86 -312 82 -301 ct 79 -289 77 -277 77 -263 ct 77 -250 78 -238 82 -227 ct 
85 -215 90 -206 96 -198 ct 103 -189 111 -183 120 -178 ct 130 -174 141 -171 153 -171 ct 
163 -171 172 -173 181 -176 ct 191 -179 199 -184 207 -190 ct 215 -197 221 -205 226 -215 ct 
231 -225 233 -236 233 -250 ct p ef
pom
pum
11472 67529 t
292 -194 m  292 -157 288 -125 281 -100 ct 274 -74 264 -54 252 -38 ct 240 -22 226 -11 209 -4 ct 
193 3 175 6 156 6 ct 137 6 120 3 103 -4 ct 87 -11 73 -22 61 -38 ct 49 -54 39 -74 32 -100 ct 
25 -125 22 -156 22 -194 ct 22 -233 25 -266 32 -291 ct 39 -317 49 -337 61 -353 ct 
73 -368 87 -379 104 -385 ct 120 -391 138 -394 158 -394 ct 176 -394 194 -391 210 -385 ct 
226 -379 240 -368 253 -353 ct 265 -337 274 -317 281 -291 ct 288 -266 292 -233 292 -194 ct 
p
241 -194 m  241 -225 239 -251 236 -271 ct 232 -292 227 -308 219 -320 ct 212 -332 204 -341 193 -346 ct 
183 -351 171 -354 158 -354 ct 144 -354 132 -351 121 -346 ct 110 -341 101 -332 94 -320 ct 
87 -308 81 -291 78 -271 ct 74 -250 72 -225 72 -194 ct 72 -164 74 -139 78 -119 ct 
82 -98 87 -82 94 -69 ct 102 -57 110 -48 121 -43 ct 131 -37 143 -35 157 -35 ct 170 -35 181 -37 192 -43 ct 
202 -48 211 -57 219 -69 ct 226 -82 231 -98 235 -119 ct 239 -139 241 -164 241 -194 ct 
p ef
pom
pum
19058 60612 t
289 -108 m  289 -92 287 -76 281 -62 ct 276 -48 268 -36 257 -26 ct 247 -16 233 -8 216 -3 ct 
199 3 180 6 157 6 ct 134 6 115 3 98 -3 ct 81 -8 68 -16 57 -26 ct 46 -36 38 -48 32 -62 ct 
27 -76 25 -91 25 -108 ct 25 -122 27 -134 31 -145 ct 35 -156 41 -166 48 -174 ct 
56 -182 64 -188 73 -193 ct 82 -198 92 -201 102 -203 ct 102 -204 l  91 -207 81 -211 73 -217 ct 
64 -222 57 -229 51 -237 ct 46 -245 41 -254 38 -264 ct 35 -273 34 -284 34 -295 ct 
34 -308 36 -321 41 -333 ct 47 -345 54 -356 65 -365 ct 75 -374 88 -381 103 -386 ct 
118 -391 136 -394 156 -394 ct 177 -394 195 -391 211 -386 ct 226 -381 239 -373 249 -364 ct 
260 -355 267 -345 272 -333 ct 277 -320 280 -308 280 -294 ct 280 -283 278 -273 275 -263 ct 
272 -254 268 -245 262 -237 ct 256 -229 249 -222 240 -216 ct 232 -211 222 -207 211 -205 ct 
211 -204 l  222 -202 232 -198 242 -194 ct 251 -189 260 -182 267 -174 ct 274 -166 279 -157 283 -146 ct 
287 -135 289 -122 289 -108 ct p
228 -291 m  228 -301 227 -310 224 -318 ct 222 -326 218 -333 212 -339 ct 206 -345 199 -349 190 -352 ct 
181 -355 169 -357 156 -357 ct 143 -357 132 -355 123 -352 ct 114 -349 106 -345 101 -339 ct 
95 -333 91 -326 88 -318 ct 86 -310 84 -301 84 -291 ct 84 -284 85 -276 87 -268 ct 
89 -260 93 -252 98 -246 ct 104 -239 111 -234 120 -229 ct 130 -225 142 -223 156 -223 ct 
172 -223 185 -225 194 -229 ct 203 -234 211 -239 216 -246 ct 221 -252 224 -260 226 -268 ct 
227 -276 228 -284 228 -291 ct p
238 -113 m  238 -122 236 -131 234 -140 ct 231 -149 227 -157 221 -163 ct 214 -170 206 -175 195 -180 ct 
185 -184 172 -186 156 -186 ct 141 -186 129 -184 119 -180 ct 109 -175 100 -170 94 -163 ct 
88 -156 83 -148 80 -139 ct 77 -131 76 -121 76 -112 ct 76 -100 77 -89 80 -79 ct 
83 -69 88 -61 94 -53 ct 101 -46 109 -41 120 -37 ct 130 -33 143 -31 158 -31 ct 173 -31 185 -33 196 -37 ct 
206 -41 214 -46 220 -53 ct 227 -61 231 -69 234 -79 ct 236 -89 238 -100 238 -113 ct 
p ef
pom
pum
26644 64935 t
289 -107 m  289 -89 286 -73 280 -59 ct 274 -45 266 -33 255 -24 ct 244 -14 230 -7 214 -2 ct 
197 3 178 6 157 6 ct 133 6 113 3 97 -3 ct 80 -9 67 -17 56 -27 ct 45 -37 37 -48 32 -60 ct 
27 -73 23 -86 21 -99 ct 73 -104 l  74 -94 77 -84 81 -76 ct 85 -68 90 -60 97 -54 ct 
104 -48 112 -43 122 -40 ct 132 -37 144 -35 157 -35 ct 182 -35 202 -41 216 -54 ct 
230 -66 237 -84 237 -109 ct 237 -123 234 -134 228 -143 ct 222 -152 214 -159 204 -164 ct 
195 -169 184 -172 173 -173 ct 162 -175 152 -176 143 -176 ct 115 -176 l  115 -219 l 
142 -219 l  151 -219 161 -220 171 -222 ct 181 -224 190 -227 198 -232 ct 207 -237 214 -244 219 -253 ct 
225 -262 227 -273 227 -286 ct 227 -307 221 -323 209 -335 ct 197 -347 179 -353 155 -353 ct 
133 -353 115 -348 101 -336 ct 88 -325 80 -309 78 -289 ct 28 -293 l  30 -310 35 -325 42 -337 ct 
49 -350 59 -361 70 -369 ct 81 -377 94 -384 109 -388 ct 123 -392 139 -394 155 -394 ct 
177 -394 195 -391 211 -386 ct 227 -380 239 -373 249 -364 ct 259 -355 266 -344 271 -331 ct 
276 -319 278 -305 278 -291 ct 278 -280 277 -269 273 -259 ct 270 -249 265 -240 259 -232 ct 
252 -225 244 -218 234 -212 ct 223 -206 211 -202 197 -199 ct 197 -198 l  213 -196 226 -193 238 -187 ct 
249 -182 259 -175 266 -167 ct 274 -159 279 -150 283 -140 ct 287 -129 289 -118 289 -107 ct 
p ef
pom
pum
11695 59023 t
521 0 m  442 0 l  358 -309 l  356 -317 353 -328 350 -340 ct 347 -352 345 -363 342 -374 ct 
340 -387 337 -399 334 -413 ct 331 -399 328 -386 325 -374 ct 323 -363 320 -351 317 -339 ct 
315 -328 312 -317 310 -309 ct 225 0 l  146 0 l  3 -486 l  72 -486 l  159 -177 l 
163 -163 167 -148 170 -134 ct 174 -120 177 -107 179 -96 ct 182 -83 185 -70 188 -58 ct 
191 -74 195 -89 198 -105 ct 200 -111 201 -118 203 -125 ct 205 -132 206 -139 208 -146 ct 
210 -153 211 -160 213 -166 ct 215 -172 216 -178 218 -184 ct 302 -486 l  365 -486 l 
450 -184 l  451 -178 453 -172 455 -166 ct 456 -160 458 -153 460 -146 ct 461 -140 463 -133 465 -126 ct 
466 -118 468 -112 470 -105 ct 473 -90 477 -74 480 -58 ct 480 -58 481 -62 483 -70 ct 
485 -78 487 -88 490 -100 ct 493 -112 496 -125 499 -138 ct 503 -152 506 -165 510 -177 ct 
595 -486 l  664 -486 l  521 0 l  p ef
998 -187 m  998 -122 984 -73 955 -41 ct 926 -9 884 7 830 7 ct 804 7 781 3 760 -5 ct 
740 -13 722 -24 708 -41 ct 694 -57 683 -77 676 -101 ct 668 -125 665 -154 665 -187 ct 
665 -316 720 -380 832 -380 ct 861 -380 886 -376 907 -368 ct 928 -360 945 -348 959 -332 ct 
972 -315 982 -295 988 -271 ct 995 -247 998 -219 998 -187 ct p
933 -187 m  933 -216 931 -240 926 -258 ct 922 -277 915 -292 906 -304 ct 898 -315 887 -323 875 -327 ct 
863 -332 849 -334 833 -334 ct 817 -334 803 -332 790 -327 ct 777 -322 766 -314 757 -303 ct 
748 -291 742 -276 737 -257 ct 732 -239 730 -215 730 -187 ct 730 -158 732 -134 737 -115 ct 
742 -96 749 -81 758 -70 ct 767 -58 778 -50 790 -46 ct 802 -41 815 -39 829 -39 ct 
845 -39 859 -41 872 -46 ct 885 -50 896 -58 905 -69 ct 914 -80 921 -96 926 -115 ct 
930 -134 933 -158 933 -187 ct p ef
1140 -373 m  1140 -136 l  1140 -118 1142 -103 1144 -91 ct 1147 -79 1151 -69 1157 -61 ct 
1163 -54 1171 -49 1181 -46 ct 1191 -42 1203 -41 1217 -41 ct 1232 -41 1245 -44 1257 -49 ct 
1269 -54 1279 -61 1287 -71 ct 1296 -81 1302 -93 1307 -107 ct 1311 -122 1314 -138 1314 -157 ct 
1314 -373 l  1376 -373 l  1376 -78 l  1376 -71 1376 -62 1376 -54 ct 1376 -45 1376 -37 1376 -29 ct 
1377 -21 1377 -15 1377 -9 ct 1377 -4 1378 -1 1378 -1 ct 1319 -1 l  1319 -2 1319 -5 1318 -10 ct 
1318 -15 1318 -21 1318 -27 ct 1317 -34 1317 -40 1317 -47 ct 1317 -54 1316 -59 1316 -64 ct 
1315 -64 l  1309 -53 1303 -43 1296 -34 ct 1289 -26 1280 -18 1271 -12 ct 1261 -6 1251 -1 1238 2 ct 
1226 5 1212 7 1196 7 ct 1175 7 1158 4 1143 -1 ct 1128 -6 1115 -13 1106 -24 ct 1096 -35 1089 -48 1085 -65 ct 
1080 -81 1078 -101 1078 -124 ct 1078 -373 l  1140 -373 l  p ef
1477 1 m  1477 -511 l  1539 -511 l  1539 1 l  1477 1 l  p ef
1871 -59 m  1860 -35 1844 -18 1825 -8 ct 1806 3 1783 8 1755 8 ct 1708 8 1673 -8 1651 -40 ct 
1629 -71 1618 -119 1618 -184 ct 1618 -314 1663 -379 1755 -379 ct 1783 -379 1807 -374 1826 -363 ct 
1844 -353 1860 -337 1871 -314 ct 1872 -314 l  1872 -316 1872 -320 1872 -325 ct 
1871 -330 1871 -335 1871 -341 ct 1871 -346 1871 -351 1871 -356 ct 1871 -361 1871 -364 1871 -366 ct 
1871 -511 l  1933 -511 l  1933 -74 l  1933 -65 1933 -57 1933 -48 ct 1933 -40 1934 -33 1934 -26 ct 
1934 -19 1934 -13 1934 -8 ct 1935 -3 1935 0 1935 0 ct 1876 0 l  1875 -3 1875 -6 1875 -10 ct 
1874 -14 1874 -19 1874 -24 ct 1873 -30 1873 -35 1873 -41 ct 1873 -47 1872 -53 1872 -59 ct 
1871 -59 l  p
1683 -186 m  1683 -160 1684 -138 1688 -120 ct 1691 -101 1696 -86 1703 -74 ct 
1710 -62 1719 -54 1730 -48 ct 1741 -43 1755 -40 1771 -40 ct 1787 -40 1801 -43 1814 -48 ct 
1826 -53 1837 -62 1845 -74 ct 1854 -85 1860 -101 1864 -120 ct 1869 -139 1871 -162 1871 -190 ct 
1871 -216 1869 -239 1864 -257 ct 1860 -275 1854 -290 1845 -301 ct 1837 -313 1826 -321 1814 -326 ct 
1802 -331 1787 -333 1771 -333 ct 1756 -333 1743 -331 1732 -325 ct 1721 -320 1712 -311 1705 -300 ct 
1697 -288 1692 -273 1688 -254 ct 1685 -235 1683 -213 1683 -186 ct p ef
2523 -103 m  2523 -86 2520 -70 2513 -56 ct 2507 -43 2497 -31 2484 -22 ct 2471 -12 2455 -5 2436 0 ct 
2418 5 2396 7 2372 7 ct 2351 7 2331 5 2314 2 ct 2296 -1 2281 -7 2268 -14 ct 2255 -21 2244 -31 2235 -43 ct 
2226 -55 2220 -70 2216 -87 ct 2270 -98 l  2276 -78 2287 -64 2303 -54 ct 2320 -45 2343 -40 2372 -40 ct 
2385 -40 2398 -41 2409 -43 ct 2420 -45 2430 -48 2438 -52 ct 2446 -57 2452 -63 2456 -70 ct 
2461 -78 2463 -87 2463 -98 ct 2463 -109 2461 -119 2455 -126 ct 2450 -133 2443 -139 2433 -144 ct 
2424 -149 2412 -153 2399 -157 ct 2385 -160 2371 -164 2355 -169 ct 2340 -172 2325 -177 2310 -182 ct 
2295 -186 2282 -193 2270 -201 ct 2258 -209 2249 -219 2242 -230 ct 2234 -242 2230 -257 2230 -274 ct 
2230 -308 2243 -334 2267 -352 ct 2291 -370 2326 -379 2373 -379 ct 2414 -379 2447 -372 2471 -357 ct 
2495 -343 2511 -319 2517 -288 ct 2461 -281 l  2459 -290 2455 -298 2450 -305 ct 
2444 -311 2438 -317 2430 -321 ct 2422 -325 2413 -328 2403 -329 ct 2394 -331 2383 -332 2373 -332 ct 
2345 -332 2324 -328 2311 -319 ct 2297 -311 2291 -298 2291 -281 ct 2291 -271 2293 -262 2298 -256 ct 
2303 -249 2310 -244 2319 -239 ct 2328 -235 2338 -231 2351 -227 ct 2363 -224 2377 -220 2392 -217 ct 
2402 -214 2412 -212 2422 -209 ct 2432 -206 2443 -202 2452 -198 ct 2462 -194 2471 -190 2480 -184 ct 
2489 -179 2496 -172 2502 -165 ct 2509 -157 2514 -148 2518 -138 ct 2522 -128 2523 -116 2523 -103 ct 
p ef
2674 -373 m  2674 -136 l  2674 -118 2676 -103 2678 -91 ct 2681 -79 2685 -69 2691 -61 ct 
2697 -54 2705 -49 2715 -46 ct 2725 -42 2737 -41 2751 -41 ct 2766 -41 2779 -44 2791 -49 ct 
2803 -54 2813 -61 2821 -71 ct 2830 -81 2836 -93 2841 -107 ct 2845 -122 2848 -138 2848 -157 ct 
2848 -373 l  2910 -373 l  2910 -78 l  2910 -71 2910 -62 2910 -54 ct 2910 -45 2910 -37 2910 -29 ct 
2911 -21 2911 -15 2911 -9 ct 2911 -4 2912 -1 2912 -1 ct 2853 -1 l  2853 -2 2853 -5 2852 -10 ct 
2852 -15 2852 -21 2852 -27 ct 2851 -34 2851 -40 2851 -47 ct 2851 -54 2850 -59 2850 -64 ct 
2849 -64 l  2843 -53 2837 -43 2830 -34 ct 2823 -26 2814 -18 2805 -12 ct 2795 -6 2785 -1 2772 2 ct 
2760 5 2746 7 2730 7 ct 2709 7 2692 4 2677 -1 ct 2662 -6 2649 -13 2640 -24 ct 2630 -35 2623 -48 2619 -65 ct 
2614 -81 2612 -101 2612 -124 ct 2612 -373 l  2674 -373 l  p ef
3058 -188 m  3058 -167 3059 -147 3062 -129 ct 3066 -111 3071 -96 3078 -83 ct 
3086 -70 3095 -60 3107 -53 ct 3119 -46 3134 -42 3152 -42 ct 3174 -42 3192 -48 3207 -59 ct 
3222 -71 3231 -89 3235 -113 ct 3297 -113 l  3295 -97 3291 -82 3284 -68 ct 3277 -53 3268 -41 3256 -30 ct 
3244 -19 3230 -10 3213 -3 ct 3196 4 3176 7 3154 7 ct 3124 7 3100 2 3079 -8 ct 3059 -18 3042 -31 3029 -49 ct 
3017 -66 3007 -87 3002 -110 ct 2996 -134 2993 -159 2993 -187 ct 2993 -212 2995 -234 2999 -253 ct 
3003 -272 3009 -289 3017 -304 ct 3024 -318 3033 -330 3043 -340 ct 3053 -350 3064 -357 3076 -363 ct 
3088 -369 3100 -373 3113 -376 ct 3126 -379 3140 -380 3153 -380 ct 3174 -380 3192 -377 3209 -371 ct 
3225 -366 3239 -358 3251 -348 ct 3263 -338 3272 -326 3280 -312 ct 3287 -299 3292 -284 3295 -269 ct 
3232 -264 l  3228 -284 3220 -301 3207 -313 ct 3194 -325 3175 -331 3151 -331 ct 
3134 -331 3119 -328 3107 -323 ct 3095 -317 3086 -308 3078 -296 ct 3071 -284 3066 -269 3062 -251 ct 
3059 -233 3058 -212 3058 -188 ct p ef
3443 -308 m  3450 -321 3458 -332 3466 -341 ct 3474 -349 3483 -357 3492 -362 ct 
3502 -368 3512 -372 3524 -375 ct 3535 -378 3548 -379 3563 -379 ct 3586 -379 3606 -376 3621 -369 ct 
3637 -363 3649 -354 3658 -342 ct 3666 -331 3672 -317 3676 -301 ct 3679 -285 3681 -267 3681 -248 ct 
3681 1 l  3618 1 l  3618 -236 l  3618 -252 3617 -265 3615 -277 ct 3614 -289 3610 -299 3604 -307 ct 
3599 -315 3591 -321 3581 -325 ct 3571 -329 3558 -331 3542 -331 ct 3527 -331 3514 -328 3502 -323 ct 
3490 -318 3480 -310 3471 -301 ct 3463 -291 3457 -279 3452 -266 ct 3447 -252 3445 -236 3445 -219 ct 
3445 1 l  3383 1 l  3383 -511 l  3445 -511 l  3445 -378 l  3445 -370 3445 -362 3445 -355 ct 
3444 -347 3444 -340 3444 -334 ct 3443 -327 3443 -322 3443 -317 ct 3443 -313 3442 -310 3442 -308 ct 
3443 -308 l  p ef
4085 7 m  4047 7 4019 -3 4000 -23 ct 3981 -43 3972 -70 3972 -105 ct 3972 -129 3977 -149 3986 -165 ct 
3995 -181 4007 -194 4023 -203 ct 4038 -212 4055 -218 4074 -221 ct 4093 -225 4113 -226 4133 -226 ct 
4217 -226 l  4217 -247 l  4217 -263 4215 -276 4212 -287 ct 4209 -298 4204 -307 4197 -313 ct 
4190 -320 4182 -325 4172 -328 ct 4162 -331 4150 -333 4137 -333 ct 4125 -333 4114 -332 4104 -330 ct 
4095 -328 4086 -325 4079 -321 ct 4072 -316 4066 -310 4062 -303 ct 4058 -295 4055 -285 4053 -273 ct 
3989 -279 l  3991 -294 3995 -307 4002 -320 ct 4008 -332 4017 -343 4029 -352 ct 
4041 -361 4056 -368 4074 -373 ct 4091 -378 4113 -380 4138 -380 ct 4185 -380 4220 -369 4244 -348 ct 
4268 -326 4279 -295 4279 -254 ct 4279 -94 l  4279 -75 4282 -61 4287 -52 ct 4292 -43 4301 -38 4314 -38 ct 
4318 -38 4321 -38 4325 -39 ct 4328 -39 4331 -40 4335 -40 ct 4335 -2 l  4327 0 4319 1 4311 2 ct 
4304 3 4295 4 4287 4 ct 4275 4 4265 2 4257 -1 ct 4248 -4 4241 -9 4236 -15 ct 4231 -21 4227 -29 4224 -39 ct 
4221 -48 4220 -59 4219 -71 ct 4217 -71 l  4210 -59 4203 -49 4195 -39 ct 4187 -29 4178 -21 4167 -14 ct 
4157 -7 4145 -2 4131 1 ct 4118 5 4102 7 4085 7 ct p
4099 -40 m  4119 -40 4136 -43 4151 -50 ct 4166 -58 4178 -67 4188 -78 ct 4197 -89 4205 -101 4210 -115 ct 
4214 -128 4217 -140 4217 -153 ct 4217 -183 l  4149 -183 l  4134 -183 4119 -182 4106 -180 ct 
4092 -178 4080 -174 4070 -168 ct 4059 -163 4051 -155 4045 -144 ct 4039 -134 4036 -120 4036 -103 ct 
4036 -83 4041 -67 4052 -56 ct 4063 -45 4079 -40 4099 -40 ct p ef
4742 -2 m  4733 0 4723 2 4713 4 ct 4703 5 4692 6 4679 6 ct 4630 6 4605 -22 4605 -79 ct 
4605 -328 l  4562 -328 l  4562 -373 l  4607 -373 l  4625 -456 l  4667 -456 l 
4667 -373 l  4736 -373 l  4736 -328 l  4667 -328 l  4667 -92 l  4667 -74 4670 -61 4676 -54 ct 
4681 -47 4692 -43 4706 -43 ct 4712 -43 4718 -44 4724 -45 ct 4729 -46 4735 -47 4742 -48 ct 
4742 -2 l  p ef
5126 -187 m  5126 -122 5112 -73 5083 -41 ct 5054 -9 5012 7 4958 7 ct 4932 7 4909 3 4888 -5 ct 
4868 -13 4850 -24 4836 -41 ct 4822 -57 4811 -77 4804 -101 ct 4796 -125 4793 -154 4793 -187 ct 
4793 -316 4848 -380 4960 -380 ct 4989 -380 5014 -376 5035 -368 ct 5056 -360 5073 -348 5087 -332 ct 
5100 -315 5110 -295 5116 -271 ct 5123 -247 5126 -219 5126 -187 ct p
5061 -187 m  5061 -216 5059 -240 5054 -258 ct 5050 -277 5043 -292 5034 -304 ct 
5026 -315 5015 -323 5003 -327 ct 4991 -332 4977 -334 4961 -334 ct 4945 -334 4931 -332 4918 -327 ct 
4905 -322 4894 -314 4885 -303 ct 4876 -291 4870 -276 4865 -257 ct 4860 -239 4858 -215 4858 -187 ct 
4858 -158 4860 -134 4865 -115 ct 4870 -96 4877 -81 4886 -70 ct 4895 -58 4906 -50 4918 -46 ct 
4930 -41 4943 -39 4957 -39 ct 4973 -39 4987 -41 5000 -46 ct 5013 -50 5024 -58 5033 -69 ct 
5042 -80 5049 -96 5054 -115 ct 5058 -134 5061 -158 5061 -187 ct p ef
5522 -187 m  5522 -122 5508 -73 5479 -41 ct 5450 -9 5408 7 5354 7 ct 5328 7 5305 3 5284 -5 ct 
5264 -13 5246 -24 5232 -41 ct 5218 -57 5207 -77 5200 -101 ct 5192 -125 5189 -154 5189 -187 ct 
5189 -316 5244 -380 5356 -380 ct 5385 -380 5410 -376 5431 -368 ct 5452 -360 5469 -348 5483 -332 ct 
5496 -315 5506 -295 5512 -271 ct 5519 -247 5522 -219 5522 -187 ct p
5457 -187 m  5457 -216 5455 -240 5450 -258 ct 5446 -277 5439 -292 5430 -304 ct 
5422 -315 5411 -323 5399 -327 ct 5387 -332 5373 -334 5357 -334 ct 5341 -334 5327 -332 5314 -327 ct 
5301 -322 5290 -314 5281 -303 ct 5272 -291 5266 -276 5261 -257 ct 5256 -239 5254 -215 5254 -187 ct 
5254 -158 5256 -134 5261 -115 ct 5266 -96 5273 -81 5282 -70 ct 5291 -58 5302 -50 5314 -46 ct 
5326 -41 5339 -39 5353 -39 ct 5369 -39 5383 -41 5396 -46 ct 5409 -50 5420 -58 5429 -69 ct 
5438 -80 5445 -96 5450 -115 ct 5454 -134 5457 -158 5457 -187 ct p ef
5604 1 m  5604 -511 l  5666 -511 l  5666 1 l  5604 1 l  p ef
6290 -187 m  6290 -57 6244 8 6153 8 ct 6125 8 6101 3 6082 -7 ct 6064 -18 6048 -34 6037 -57 ct 
6036 -57 l  6036 -51 6036 -45 6035 -38 ct 6035 -32 6035 -26 6034 -20 ct 6034 -14 6034 -10 6033 -6 ct 
6033 -2 6033 0 6032 0 ct 5973 0 l  5973 -2 5973 -5 5973 -10 ct 5973 -15 5974 -21 5974 -28 ct 
5974 -35 5974 -42 5974 -51 ct 5975 -59 5975 -68 5975 -77 ct 5975 -511 l  6037 -511 l 
6037 -365 l  6037 -358 6037 -351 6036 -345 ct 6036 -339 6036 -333 6036 -328 ct 
6036 -323 6035 -317 6035 -312 ct 6037 -312 l  6048 -336 6063 -353 6082 -363 ct 
6101 -374 6125 -379 6153 -379 ct 6200 -379 6235 -363 6257 -331 ct 6279 -300 6290 -252 6290 -187 ct 
p
6225 -185 m  6225 -211 6223 -233 6220 -251 ct 6217 -270 6212 -285 6205 -297 ct 
6197 -309 6188 -317 6177 -323 ct 6166 -328 6153 -331 6137 -331 ct 6121 -331 6106 -328 6094 -323 ct 
6081 -318 6071 -309 6062 -298 ct 6054 -286 6048 -271 6043 -251 ct 6039 -232 6037 -209 6037 -181 ct 
6037 -155 6039 -132 6043 -114 ct 6048 -96 6054 -81 6062 -70 ct 6071 -59 6081 -50 6094 -45 ct 
6106 -40 6120 -38 6136 -38 ct 6151 -38 6165 -41 6176 -46 ct 6187 -51 6196 -60 6203 -71 ct 
6210 -83 6216 -98 6220 -117 ct 6223 -136 6225 -159 6225 -185 ct p ef
6419 -173 m  6419 -154 6421 -136 6425 -119 ct 6429 -103 6435 -89 6444 -77 ct 
6452 -65 6463 -56 6476 -49 ct 6489 -43 6505 -40 6523 -40 ct 6550 -40 6572 -45 6588 -56 ct 
6604 -67 6615 -80 6621 -97 ct 6675 -81 l  6671 -71 6666 -61 6659 -50 ct 6652 -40 6643 -30 6631 -22 ct 
6619 -13 6604 -7 6587 -1 ct 6569 4 6548 7 6523 7 ct 6468 7 6426 -9 6397 -42 ct 
6368 -75 6354 -124 6354 -189 ct 6354 -224 6358 -253 6367 -278 ct 6376 -302 6388 -322 6403 -337 ct 
6418 -352 6436 -363 6456 -370 ct 6476 -376 6498 -380 6521 -380 ct 6552 -380 6578 -375 6599 -365 ct 
6620 -355 6637 -341 6650 -323 ct 6663 -305 6672 -284 6677 -260 ct 6683 -236 6685 -210 6685 -182 ct 
6685 -173 l  6419 -173 l  p
6621 -221 m  6618 -260 6608 -289 6591 -307 ct 6575 -325 6551 -334 6520 -334 ct 
6509 -334 6499 -332 6487 -329 ct 6476 -326 6465 -320 6456 -311 ct 6446 -303 6438 -291 6431 -277 ct 
6425 -262 6421 -244 6420 -221 ct 6621 -221 l  p ef
7295 -187 m  7295 -57 7249 8 7158 8 ct 7130 8 7106 3 7087 -7 ct 7069 -18 7053 -34 7042 -57 ct 
7041 -57 l  7041 -51 7041 -45 7040 -38 ct 7040 -32 7040 -26 7039 -20 ct 7039 -14 7039 -10 7038 -6 ct 
7038 -2 7038 0 7037 0 ct 6978 0 l  6978 -2 6978 -5 6978 -10 ct 6978 -15 6979 -21 6979 -28 ct 
6979 -35 6979 -42 6979 -51 ct 6980 -59 6980 -68 6980 -77 ct 6980 -511 l  7042 -511 l 
7042 -365 l  7042 -358 7042 -351 7041 -345 ct 7041 -339 7041 -333 7041 -328 ct 
7041 -323 7040 -317 7040 -312 ct 7042 -312 l  7053 -336 7068 -353 7087 -363 ct 
7106 -374 7130 -379 7158 -379 ct 7205 -379 7240 -363 7262 -331 ct 7284 -300 7295 -252 7295 -187 ct 
p
7230 -185 m  7230 -211 7228 -233 7225 -251 ct 7222 -270 7217 -285 7210 -297 ct 
7202 -309 7193 -317 7182 -323 ct 7171 -328 7158 -331 7142 -331 ct 7126 -331 7111 -328 7099 -323 ct 
7086 -318 7076 -309 7067 -298 ct 7059 -286 7053 -271 7048 -251 ct 7044 -232 7042 -209 7042 -181 ct 
7042 -155 7044 -132 7048 -114 ct 7053 -96 7059 -81 7067 -70 ct 7076 -59 7086 -50 7099 -45 ct 
7111 -40 7125 -38 7141 -38 ct 7156 -38 7170 -41 7181 -46 ct 7192 -51 7201 -60 7208 -71 ct 
7215 -83 7221 -98 7225 -117 ct 7228 -136 7230 -159 7230 -185 ct p ef
7424 -173 m  7424 -154 7426 -136 7430 -119 ct 7434 -103 7440 -89 7449 -77 ct 
7457 -65 7468 -56 7481 -49 ct 7494 -43 7510 -40 7528 -40 ct 7555 -40 7577 -45 7593 -56 ct 
7609 -67 7620 -80 7626 -97 ct 7680 -81 l  7676 -71 7671 -61 7664 -50 ct 7657 -40 7648 -30 7636 -22 ct 
7624 -13 7609 -7 7592 -1 ct 7574 4 7553 7 7528 7 ct 7473 7 7431 -9 7402 -42 ct 
7373 -75 7359 -124 7359 -189 ct 7359 -224 7363 -253 7372 -278 ct 7381 -302 7393 -322 7408 -337 ct 
7423 -352 7441 -363 7461 -370 ct 7481 -376 7503 -380 7526 -380 ct 7557 -380 7583 -375 7604 -365 ct 
7625 -355 7642 -341 7655 -323 ct 7668 -305 7677 -284 7682 -260 ct 7688 -236 7690 -210 7690 -182 ct 
7690 -173 l  7424 -173 l  p
7626 -221 m  7623 -260 7613 -289 7596 -307 ct 7580 -325 7556 -334 7525 -334 ct 
7514 -334 7504 -332 7492 -329 ct 7481 -326 7470 -320 7461 -311 ct 7451 -303 7443 -291 7436 -277 ct 
7430 -262 7426 -244 7425 -221 ct 7626 -221 l  p ef
8010 0 m  8010 -237 l  8010 -255 8009 -270 8006 -282 ct 8004 -294 7999 -304 7994 -312 ct 
7988 -319 7980 -324 7970 -327 ct 7960 -331 7948 -332 7934 -332 ct 7919 -332 7906 -329 7894 -324 ct 
7882 -319 7872 -312 7863 -302 ct 7855 -292 7849 -280 7844 -266 ct 7839 -251 7837 -235 7837 -216 ct 
7837 0 l  7775 0 l  7775 -294 l  7775 -302 7775 -310 7775 -319 ct 7775 -328 7775 -336 7774 -344 ct 
7774 -351 7774 -358 7774 -363 ct 7773 -369 7773 -372 7773 -372 ct 7831 -372 l 
7832 -371 7832 -368 7832 -363 ct 7832 -358 7833 -352 7833 -346 ct 7833 -339 7834 -333 7834 -326 ct 
7834 -319 7834 -314 7834 -309 ct 7835 -309 l  7841 -320 7848 -330 7855 -339 ct 
7862 -347 7870 -355 7880 -361 ct 7889 -367 7900 -372 7912 -375 ct 7924 -378 7938 -380 7955 -380 ct 
7975 -380 7993 -377 8008 -372 ct 8023 -367 8035 -360 8045 -349 ct 8055 -338 8062 -325 8066 -308 ct 
8071 -291 8073 -272 8073 -249 ct 8073 0 l  8010 0 l  p ef
8218 -173 m  8218 -154 8220 -136 8224 -119 ct 8228 -103 8234 -89 8243 -77 ct 
8251 -65 8262 -56 8275 -49 ct 8288 -43 8304 -40 8322 -40 ct 8349 -40 8371 -45 8387 -56 ct 
8403 -67 8414 -80 8420 -97 ct 8474 -81 l  8470 -71 8465 -61 8458 -50 ct 8451 -40 8442 -30 8430 -22 ct 
8418 -13 8403 -7 8386 -1 ct 8368 4 8347 7 8322 7 ct 8267 7 8225 -9 8196 -42 ct 
8167 -75 8153 -124 8153 -189 ct 8153 -224 8157 -253 8166 -278 ct 8175 -302 8187 -322 8202 -337 ct 
8217 -352 8235 -363 8255 -370 ct 8275 -376 8297 -380 8320 -380 ct 8351 -380 8377 -375 8398 -365 ct 
8419 -355 8436 -341 8449 -323 ct 8462 -305 8471 -284 8476 -260 ct 8482 -236 8484 -210 8484 -182 ct 
8484 -173 l  8218 -173 l  p
8420 -221 m  8417 -260 8407 -289 8390 -307 ct 8374 -325 8350 -334 8319 -334 ct 
8308 -334 8298 -332 8286 -329 ct 8275 -326 8264 -320 8255 -311 ct 8245 -303 8237 -291 8230 -277 ct 
8224 -262 8220 -244 8219 -221 ct 8420 -221 l  p ef
8644 -328 m  8644 0 l  8582 0 l  8582 -328 l  8530 -328 l  8530 -373 l 
8582 -373 l  8582 -415 l  8582 -429 8584 -441 8586 -453 ct 8589 -464 8593 -475 8600 -483 ct 
8607 -492 8616 -499 8628 -504 ct 8640 -509 8655 -511 8673 -511 ct 8681 -511 8688 -511 8696 -510 ct 
8704 -509 8711 -508 8717 -507 ct 8717 -460 l  8713 -460 8709 -461 8704 -462 ct 
8698 -462 8694 -462 8690 -462 ct 8680 -462 8673 -461 8667 -459 ct 8661 -456 8657 -452 8653 -448 ct 
8650 -443 8648 -437 8646 -430 ct 8645 -423 8644 -415 8644 -406 ct 8644 -373 l 
8717 -373 l  8717 -328 l  8644 -328 l  p ef
8778 -452 m  8778 -511 l  8840 -511 l  8840 -452 l  8778 -452 l  p
8778 1 m  8778 -372 l  8840 -372 l  8840 1 l  8778 1 l  p ef
8985 -188 m  8985 -167 8986 -147 8989 -129 ct 8993 -111 8998 -96 9005 -83 ct 
9013 -70 9022 -60 9034 -53 ct 9046 -46 9061 -42 9079 -42 ct 9101 -42 9119 -48 9134 -59 ct 
9149 -71 9158 -89 9162 -113 ct 9224 -113 l  9222 -97 9218 -82 9211 -68 ct 9204 -53 9195 -41 9183 -30 ct 
9171 -19 9157 -10 9140 -3 ct 9123 4 9103 7 9081 7 ct 9051 7 9027 2 9006 -8 ct 8986 -18 8969 -31 8956 -49 ct 
8944 -66 8934 -87 8929 -110 ct 8923 -134 8920 -159 8920 -187 ct 8920 -212 8922 -234 8926 -253 ct 
8930 -272 8936 -289 8944 -304 ct 8951 -318 8960 -330 8970 -340 ct 8980 -350 8991 -357 9003 -363 ct 
9015 -369 9027 -373 9040 -376 ct 9053 -379 9067 -380 9080 -380 ct 9101 -380 9119 -377 9136 -371 ct 
9152 -366 9166 -358 9178 -348 ct 9190 -338 9199 -326 9207 -312 ct 9214 -299 9219 -284 9222 -269 ct 
9159 -264 l  9155 -284 9147 -301 9134 -313 ct 9121 -325 9102 -331 9078 -331 ct 
9061 -331 9046 -328 9034 -323 ct 9022 -317 9013 -308 9005 -296 ct 8998 -284 8993 -269 8989 -251 ct 
8986 -233 8985 -212 8985 -188 ct p ef
9307 -452 m  9307 -511 l  9369 -511 l  9369 -452 l  9307 -452 l  p
9307 1 m  9307 -372 l  9369 -372 l  9369 1 l  9307 1 l  p ef
9562 7 m  9524 7 9496 -3 9477 -23 ct 9458 -43 9449 -70 9449 -105 ct 9449 -129 9454 -149 9463 -165 ct 
9472 -181 9484 -194 9500 -203 ct 9515 -212 9532 -218 9551 -221 ct 9570 -225 9590 -226 9610 -226 ct 
9694 -226 l  9694 -247 l  9694 -263 9692 -276 9689 -287 ct 9686 -298 9681 -307 9674 -313 ct 
9667 -320 9659 -325 9649 -328 ct 9639 -331 9627 -333 9614 -333 ct 9602 -333 9591 -332 9581 -330 ct 
9572 -328 9563 -325 9556 -321 ct 9549 -316 9543 -310 9539 -303 ct 9535 -295 9532 -285 9530 -273 ct 
9466 -279 l  9468 -294 9472 -307 9479 -320 ct 9485 -332 9494 -343 9506 -352 ct 
9518 -361 9533 -368 9551 -373 ct 9568 -378 9590 -380 9615 -380 ct 9662 -380 9697 -369 9721 -348 ct 
9745 -326 9756 -295 9756 -254 ct 9756 -94 l  9756 -75 9759 -61 9764 -52 ct 9769 -43 9778 -38 9791 -38 ct 
9795 -38 9798 -38 9802 -39 ct 9805 -39 9808 -40 9812 -40 ct 9812 -2 l  9804 0 9796 1 9788 2 ct 
9781 3 9772 4 9764 4 ct 9752 4 9742 2 9734 -1 ct 9725 -4 9718 -9 9713 -15 ct 9708 -21 9704 -29 9701 -39 ct 
9698 -48 9697 -59 9696 -71 ct 9694 -71 l  9687 -59 9680 -49 9672 -39 ct 9664 -29 9655 -21 9644 -14 ct 
9634 -7 9622 -2 9608 1 ct 9595 5 9579 7 9562 7 ct p
9576 -40 m  9596 -40 9613 -43 9628 -50 ct 9643 -58 9655 -67 9665 -78 ct 9674 -89 9682 -101 9687 -115 ct 
9691 -128 9694 -140 9694 -153 ct 9694 -183 l  9626 -183 l  9611 -183 9596 -182 9583 -180 ct 
9569 -178 9557 -174 9547 -168 ct 9536 -163 9528 -155 9522 -144 ct 9516 -134 9513 -120 9513 -103 ct 
9513 -83 9518 -67 9529 -56 ct 9540 -45 9556 -40 9576 -40 ct p ef
9864 1 m  9864 -511 l  9926 -511 l  9926 1 l  9864 1 l  p ef
10310 -328 m  10310 0 l  10248 0 l  10248 -328 l  10196 -328 l  10196 -373 l 
10248 -373 l  10248 -415 l  10248 -429 10250 -441 10252 -453 ct 10255 -464 10259 -475 10266 -483 ct 
10273 -492 10282 -499 10294 -504 ct 10306 -509 10321 -511 10339 -511 ct 10347 -511 10354 -511 10362 -510 ct 
10370 -509 10377 -508 10383 -507 ct 10383 -460 l  10379 -460 10375 -461 10370 -462 ct 
10364 -462 10360 -462 10356 -462 ct 10346 -462 10339 -461 10333 -459 ct 10327 -456 10323 -452 10319 -448 ct 
10316 -443 10314 -437 10312 -430 ct 10311 -423 10310 -415 10310 -406 ct 10310 -373 l 
10383 -373 l  10383 -328 l  10310 -328 l  p ef
10761 -187 m  10761 -122 10747 -73 10718 -41 ct 10689 -9 10647 7 10593 7 ct 
10567 7 10544 3 10523 -5 ct 10503 -13 10485 -24 10471 -41 ct 10457 -57 10446 -77 10439 -101 ct 
10431 -125 10428 -154 10428 -187 ct 10428 -316 10483 -380 10595 -380 ct 10624 -380 10649 -376 10670 -368 ct 
10691 -360 10708 -348 10722 -332 ct 10735 -315 10745 -295 10751 -271 ct 10758 -247 10761 -219 10761 -187 ct 
p
10696 -187 m  10696 -216 10694 -240 10689 -258 ct 10685 -277 10678 -292 10669 -304 ct 
10661 -315 10650 -323 10638 -327 ct 10626 -332 10612 -334 10596 -334 ct 10580 -334 10566 -332 10553 -327 ct 
10540 -322 10529 -314 10520 -303 ct 10511 -291 10505 -276 10500 -257 ct 10495 -239 10493 -215 10493 -187 ct 
10493 -158 10495 -134 10500 -115 ct 10505 -96 10512 -81 10521 -70 ct 10530 -58 10541 -50 10553 -46 ct 
10565 -41 10578 -39 10592 -39 ct 10608 -39 10622 -41 10635 -46 ct 10648 -50 10659 -58 10668 -69 ct 
10677 -80 10684 -96 10689 -115 ct 10693 -134 10696 -158 10696 -187 ct p ef
10844 0 m  10844 -286 l  10844 -294 10844 -302 10844 -310 ct 10844 -318 10844 -326 10843 -334 ct 
10843 -341 10843 -349 10843 -355 ct 10842 -362 10842 -368 10842 -373 ct 10900 -373 l 
10901 -368 10901 -362 10901 -355 ct 10902 -348 10902 -341 10902 -334 ct 10903 -327 10903 -320 10903 -314 ct 
10903 -307 10903 -302 10903 -297 ct 10905 -297 l  10909 -311 10914 -324 10919 -334 ct 
10924 -344 10929 -353 10936 -360 ct 10943 -367 10951 -372 10960 -375 ct 10969 -378 10980 -380 10993 -380 ct 
10998 -380 11003 -380 11008 -379 ct 11012 -378 11016 -377 11018 -377 ct 11018 -320 l 
11014 -321 11009 -322 11004 -322 ct 10998 -323 10992 -323 10985 -323 ct 10971 -323 10959 -320 10949 -313 ct 
10939 -307 10931 -298 10924 -287 ct 10918 -275 10913 -262 10910 -246 ct 10908 -230 10906 -213 10906 -194 ct 
10906 0 l  10844 0 l  p ef
11453 0 m  11444 22 11436 42 11426 60 ct 11417 78 11407 94 11396 107 ct 11385 119 11372 129 11358 136 ct 
11345 143 11329 146 11311 146 ct 11303 146 11296 146 11289 146 ct 11282 146 11275 145 11268 143 ct 
11268 96 l  11272 97 11277 98 11283 98 ct 11288 98 11293 98 11297 98 ct 11315 98 11332 91 11348 78 ct 
11363 64 11377 43 11389 13 ct 11395 -2 l  11247 -373 l  11313 -373 l  11392 -167 l 
11394 -161 11397 -152 11400 -142 ct 11404 -132 11407 -121 11411 -111 ct 11415 -101 11418 -91 11420 -83 ct 
11423 -75 11425 -70 11425 -67 ct 11426 -70 11428 -75 11430 -82 ct 11433 -90 11436 -98 11439 -107 ct 
11443 -117 11446 -126 11449 -135 ct 11453 -145 11456 -153 11458 -160 ct 11531 -373 l 
11597 -373 l  11453 0 l  p ef
11978 -187 m  11978 -122 11964 -73 11935 -41 ct 11906 -9 11864 7 11810 7 ct 
11784 7 11761 3 11740 -5 ct 11720 -13 11702 -24 11688 -41 ct 11674 -57 11663 -77 11656 -101 ct 
11648 -125 11645 -154 11645 -187 ct 11645 -316 11700 -380 11812 -380 ct 11841 -380 11866 -376 11887 -368 ct 
11908 -360 11925 -348 11939 -332 ct 11952 -315 11962 -295 11968 -271 ct 11975 -247 11978 -219 11978 -187 ct 
p
11913 -187 m  11913 -216 11911 -240 11906 -258 ct 11902 -277 11895 -292 11886 -304 ct 
11878 -315 11867 -323 11855 -327 ct 11843 -332 11829 -334 11813 -334 ct 11797 -334 11783 -332 11770 -327 ct 
11757 -322 11746 -314 11737 -303 ct 11728 -291 11722 -276 11717 -257 ct 11712 -239 11710 -215 11710 -187 ct 
11710 -158 11712 -134 11717 -115 ct 11722 -96 11729 -81 11738 -70 ct 11747 -58 11758 -50 11770 -46 ct 
11782 -41 11795 -39 11809 -39 ct 11825 -39 11839 -41 11852 -46 ct 11865 -50 11876 -58 11885 -69 ct 
11894 -80 11901 -96 11906 -115 ct 11910 -134 11913 -158 11913 -187 ct p ef
12120 -373 m  12120 -136 l  12120 -118 12122 -103 12124 -91 ct 12127 -79 12131 -69 12137 -61 ct 
12143 -54 12151 -49 12161 -46 ct 12171 -42 12183 -41 12197 -41 ct 12212 -41 12225 -44 12237 -49 ct 
12249 -54 12259 -61 12267 -71 ct 12276 -81 12282 -93 12287 -107 ct 12291 -122 12294 -138 12294 -157 ct 
12294 -373 l  12356 -373 l  12356 -78 l  12356 -71 12356 -62 12356 -54 ct 
12356 -45 12356 -37 12356 -29 ct 12357 -21 12357 -15 12357 -9 ct 12357 -4 12358 -1 12358 -1 ct 
12299 -1 l  12299 -2 12299 -5 12298 -10 ct 12298 -15 12298 -21 12298 -27 ct 
12297 -34 12297 -40 12297 -47 ct 12297 -54 12296 -59 12296 -64 ct 12295 -64 l 
12289 -53 12283 -43 12276 -34 ct 12269 -26 12260 -18 12251 -12 ct 12241 -6 12231 -1 12218 2 ct 
12206 5 12192 7 12176 7 ct 12155 7 12138 4 12123 -1 ct 12108 -6 12095 -13 12086 -24 ct 
12076 -35 12069 -48 12065 -65 ct 12060 -81 12058 -101 12058 -124 ct 12058 -373 l 
12120 -373 l  p ef
12775 -356 m  12775 -340 12773 -325 12769 -313 ct 12765 -300 12759 -289 12752 -280 ct 
12745 -270 12737 -261 12728 -253 ct 12719 -246 12709 -238 12700 -231 ct 12691 -225 12681 -218 12672 -211 ct 
12663 -204 12655 -197 12648 -189 ct 12640 -182 12635 -173 12630 -163 ct 12626 -154 12623 -143 12623 -130 ct 
12563 -130 l  12563 -146 12566 -160 12570 -172 ct 12575 -184 12580 -194 12588 -203 ct 
12595 -213 12603 -221 12612 -228 ct 12621 -235 12630 -242 12639 -249 ct 12648 -255 12657 -262 12666 -269 ct 
12675 -275 12683 -282 12690 -290 ct 12697 -298 12702 -308 12706 -318 ct 12711 -328 12713 -340 12713 -353 ct 
12713 -367 12710 -379 12705 -389 ct 12701 -400 12694 -409 12685 -416 ct 12676 -423 12665 -429 12653 -432 ct 
12640 -436 12626 -438 12611 -438 ct 12579 -438 12553 -430 12534 -414 ct 12516 -399 12505 -377 12501 -350 ct 
12438 -350 l  12440 -369 12446 -388 12453 -405 ct 12461 -423 12472 -438 12486 -451 ct 
12500 -464 12517 -474 12537 -482 ct 12558 -489 12582 -493 12610 -493 ct 12637 -493 12660 -490 12680 -484 ct 
12701 -477 12718 -468 12732 -456 ct 12746 -444 12757 -430 12764 -413 ct 12772 -396 12775 -377 12775 -356 ct 
p
12560 0 m  12560 -69 l  12627 -69 l  12627 0 l  12560 0 l  p ef
pom
pum
16392 69696 t
402 0 m  347 -142 l  125 -142 l  70 0 l  1 0 l  200 -486 l  274 -486 l 
470 0 l  402 0 l  p
265 -354 m  261 -363 258 -372 254 -382 ct 251 -391 248 -400 245 -407 ct 243 -415 241 -421 239 -427 ct 
237 -432 236 -435 236 -436 ct 236 -435 235 -432 233 -426 ct 231 -421 229 -415 227 -407 ct 
224 -399 221 -390 218 -381 ct 214 -372 211 -362 208 -353 ct 145 -193 l  327 -193 l 
265 -354 l  p ef
760 0 m  760 -237 l  760 -255 759 -270 756 -282 ct 754 -294 749 -304 744 -312 ct 
738 -319 730 -324 720 -327 ct 710 -331 698 -332 684 -332 ct 669 -332 656 -329 644 -324 ct 
632 -319 622 -312 613 -302 ct 605 -292 599 -280 594 -266 ct 589 -251 587 -235 587 -216 ct 
587 0 l  525 0 l  525 -294 l  525 -302 525 -310 525 -319 ct 525 -328 525 -336 524 -344 ct 
524 -351 524 -358 524 -363 ct 523 -369 523 -372 523 -372 ct 581 -372 l  582 -371 582 -368 582 -363 ct 
582 -358 583 -352 583 -346 ct 583 -339 584 -333 584 -326 ct 584 -319 584 -314 584 -309 ct 
585 -309 l  591 -320 598 -330 605 -339 ct 612 -347 620 -355 630 -361 ct 639 -367 650 -372 662 -375 ct 
674 -378 688 -380 705 -380 ct 725 -380 743 -377 758 -372 ct 773 -367 785 -360 795 -349 ct 
805 -338 812 -325 816 -308 ct 821 -291 823 -272 823 -249 ct 823 0 l  760 0 l 
p ef
1200 -103 m  1200 -86 1197 -70 1190 -56 ct 1184 -43 1174 -31 1161 -22 ct 1148 -12 1132 -5 1113 0 ct 
1095 5 1073 7 1049 7 ct 1028 7 1008 5 991 2 ct 973 -1 958 -7 945 -14 ct 932 -21 921 -31 912 -43 ct 
903 -55 897 -70 893 -87 ct 947 -98 l  953 -78 964 -64 980 -54 ct 997 -45 1020 -40 1049 -40 ct 
1062 -40 1075 -41 1086 -43 ct 1097 -45 1107 -48 1115 -52 ct 1123 -57 1129 -63 1133 -70 ct 
1138 -78 1140 -87 1140 -98 ct 1140 -109 1138 -119 1132 -126 ct 1127 -133 1120 -139 1110 -144 ct 
1101 -149 1089 -153 1076 -157 ct 1062 -160 1048 -164 1032 -169 ct 1017 -172 1002 -177 987 -182 ct 
972 -186 959 -193 947 -201 ct 935 -209 926 -219 919 -230 ct 911 -242 907 -257 907 -274 ct 
907 -308 920 -334 944 -352 ct 968 -370 1003 -379 1050 -379 ct 1091 -379 1124 -372 1148 -357 ct 
1172 -343 1188 -319 1194 -288 ct 1138 -281 l  1136 -290 1132 -298 1127 -305 ct 
1121 -311 1115 -317 1107 -321 ct 1099 -325 1090 -328 1080 -329 ct 1071 -331 1060 -332 1050 -332 ct 
1022 -332 1001 -328 988 -319 ct 974 -311 968 -298 968 -281 ct 968 -271 970 -262 975 -256 ct 
980 -249 987 -244 996 -239 ct 1005 -235 1015 -231 1028 -227 ct 1040 -224 1054 -220 1069 -217 ct 
1079 -214 1089 -212 1099 -209 ct 1109 -206 1120 -202 1129 -198 ct 1139 -194 1148 -190 1157 -184 ct 
1166 -179 1173 -172 1179 -165 ct 1186 -157 1191 -148 1195 -138 ct 1199 -128 1200 -116 1200 -103 ct 
p ef
1649 0 m  1577 0 l  1517 -241 l  1515 -247 1513 -255 1511 -264 ct 1509 -273 1507 -282 1506 -291 ct 
1503 -301 1501 -311 1499 -322 ct 1497 -312 1495 -301 1493 -291 ct 1491 -283 1489 -274 1487 -264 ct 
1484 -255 1482 -246 1480 -239 ct 1419 0 l  1347 0 l  1243 -373 l  1304 -373 l 
1367 -120 l  1369 -114 1371 -108 1372 -100 ct 1374 -92 1375 -85 1377 -78 ct 
1379 -69 1380 -60 1382 -51 ct 1384 -60 1386 -69 1388 -77 ct 1390 -84 1392 -91 1394 -99 ct 
1395 -106 1397 -112 1398 -117 ct 1466 -373 l  1533 -373 l  1598 -117 l  1599 -111 1601 -104 1603 -97 ct 
1605 -89 1606 -82 1608 -75 ct 1610 -67 1612 -59 1614 -51 ct 1615 -60 1617 -69 1619 -77 ct 
1621 -84 1622 -91 1624 -99 ct 1626 -107 1627 -114 1629 -120 ct 1695 -373 l  1756 -373 l 
1649 0 l  p ef
1868 -173 m  1868 -154 1870 -136 1874 -119 ct 1878 -103 1884 -89 1893 -77 ct 
1901 -65 1912 -56 1925 -49 ct 1938 -43 1954 -40 1972 -40 ct 1999 -40 2021 -45 2037 -56 ct 
2053 -67 2064 -80 2070 -97 ct 2124 -81 l  2120 -71 2115 -61 2108 -50 ct 2101 -40 2092 -30 2080 -22 ct 
2068 -13 2053 -7 2036 -1 ct 2018 4 1997 7 1972 7 ct 1917 7 1875 -9 1846 -42 ct 
1817 -75 1803 -124 1803 -189 ct 1803 -224 1807 -253 1816 -278 ct 1825 -302 1837 -322 1852 -337 ct 
1867 -352 1885 -363 1905 -370 ct 1925 -376 1947 -380 1970 -380 ct 2001 -380 2027 -375 2048 -365 ct 
2069 -355 2086 -341 2099 -323 ct 2112 -305 2121 -284 2126 -260 ct 2132 -236 2134 -210 2134 -182 ct 
2134 -173 l  1868 -173 l  p
2070 -221 m  2067 -260 2057 -289 2040 -307 ct 2024 -325 2000 -334 1969 -334 ct 
1958 -334 1948 -332 1936 -329 ct 1925 -326 1914 -320 1905 -311 ct 1895 -303 1887 -291 1880 -277 ct 
1874 -262 1870 -244 1869 -221 ct 2070 -221 l  p ef
2219 0 m  2219 -286 l  2219 -294 2219 -302 2219 -310 ct 2219 -318 2219 -326 2218 -334 ct 
2218 -341 2218 -349 2218 -355 ct 2217 -362 2217 -368 2217 -373 ct 2275 -373 l 
2276 -368 2276 -362 2276 -355 ct 2277 -348 2277 -341 2277 -334 ct 2278 -327 2278 -320 2278 -314 ct 
2278 -307 2278 -302 2278 -297 ct 2280 -297 l  2284 -311 2289 -324 2294 -334 ct 
2299 -344 2304 -353 2311 -360 ct 2318 -367 2326 -372 2335 -375 ct 2344 -378 2355 -380 2368 -380 ct 
2373 -380 2378 -380 2383 -379 ct 2387 -378 2391 -377 2393 -377 ct 2393 -320 l 
2389 -321 2384 -322 2379 -322 ct 2373 -323 2367 -323 2360 -323 ct 2346 -323 2334 -320 2324 -313 ct 
2314 -307 2306 -298 2299 -287 ct 2293 -275 2288 -262 2285 -246 ct 2283 -230 2281 -213 2281 -194 ct 
2281 0 l  2219 0 l  p ef
2714 -188 m  2714 -167 2715 -147 2718 -129 ct 2722 -111 2727 -96 2734 -83 ct 
2742 -70 2751 -60 2763 -53 ct 2775 -46 2790 -42 2808 -42 ct 2830 -42 2848 -48 2863 -59 ct 
2878 -71 2887 -89 2891 -113 ct 2953 -113 l  2951 -97 2947 -82 2940 -68 ct 2933 -53 2924 -41 2912 -30 ct 
2900 -19 2886 -10 2869 -3 ct 2852 4 2832 7 2810 7 ct 2780 7 2756 2 2735 -8 ct 2715 -18 2698 -31 2685 -49 ct 
2673 -66 2663 -87 2658 -110 ct 2652 -134 2649 -159 2649 -187 ct 2649 -212 2651 -234 2655 -253 ct 
2659 -272 2665 -289 2673 -304 ct 2680 -318 2689 -330 2699 -340 ct 2709 -350 2720 -357 2732 -363 ct 
2744 -369 2756 -373 2769 -376 ct 2782 -379 2796 -380 2809 -380 ct 2830 -380 2848 -377 2865 -371 ct 
2881 -366 2895 -358 2907 -348 ct 2919 -338 2928 -326 2936 -312 ct 2943 -299 2948 -284 2951 -269 ct 
2888 -264 l  2884 -284 2876 -301 2863 -313 ct 2850 -325 2831 -331 2807 -331 ct 
2790 -331 2775 -328 2763 -323 ct 2751 -317 2742 -308 2734 -296 ct 2727 -284 2722 -269 2718 -251 ct 
2715 -233 2714 -212 2714 -188 ct p ef
3099 -308 m  3106 -321 3114 -332 3122 -341 ct 3130 -349 3139 -357 3148 -362 ct 
3158 -368 3168 -372 3180 -375 ct 3191 -378 3204 -379 3219 -379 ct 3242 -379 3262 -376 3277 -369 ct 
3293 -363 3305 -354 3314 -342 ct 3322 -331 3328 -317 3332 -301 ct 3335 -285 3337 -267 3337 -248 ct 
3337 1 l  3274 1 l  3274 -236 l  3274 -252 3273 -265 3271 -277 ct 3270 -289 3266 -299 3260 -307 ct 
3255 -315 3247 -321 3237 -325 ct 3227 -329 3214 -331 3198 -331 ct 3183 -331 3170 -328 3158 -323 ct 
3146 -318 3136 -310 3127 -301 ct 3119 -291 3113 -279 3108 -266 ct 3103 -252 3101 -236 3101 -219 ct 
3101 1 l  3039 1 l  3039 -511 l  3101 -511 l  3101 -378 l  3101 -370 3101 -362 3101 -355 ct 
3100 -347 3100 -340 3100 -334 ct 3099 -327 3099 -322 3099 -317 ct 3099 -313 3098 -310 3098 -308 ct 
3099 -308 l  p ef
3750 -187 m  3750 -122 3736 -73 3707 -41 ct 3678 -9 3636 7 3582 7 ct 3556 7 3533 3 3512 -5 ct 
3492 -13 3474 -24 3460 -41 ct 3446 -57 3435 -77 3428 -101 ct 3420 -125 3417 -154 3417 -187 ct 
3417 -316 3472 -380 3584 -380 ct 3613 -380 3638 -376 3659 -368 ct 3680 -360 3697 -348 3711 -332 ct 
3724 -315 3734 -295 3740 -271 ct 3747 -247 3750 -219 3750 -187 ct p
3685 -187 m  3685 -216 3683 -240 3678 -258 ct 3674 -277 3667 -292 3658 -304 ct 
3650 -315 3639 -323 3627 -327 ct 3615 -332 3601 -334 3585 -334 ct 3569 -334 3555 -332 3542 -327 ct 
3529 -322 3518 -314 3509 -303 ct 3500 -291 3494 -276 3489 -257 ct 3484 -239 3482 -215 3482 -187 ct 
3482 -158 3484 -134 3489 -115 ct 3494 -96 3501 -81 3510 -70 ct 3519 -58 3530 -50 3542 -46 ct 
3554 -41 3567 -39 3581 -39 ct 3597 -39 3611 -41 3624 -46 ct 3637 -50 3648 -58 3657 -69 ct 
3666 -80 3673 -96 3678 -115 ct 3682 -134 3685 -158 3685 -187 ct p ef
3831 -452 m  3831 -511 l  3893 -511 l  3893 -452 l  3831 -452 l  p
3831 1 m  3831 -372 l  3893 -372 l  3893 1 l  3831 1 l  p ef
4037 -188 m  4037 -167 4038 -147 4041 -129 ct 4045 -111 4050 -96 4057 -83 ct 
4065 -70 4074 -60 4086 -53 ct 4098 -46 4113 -42 4131 -42 ct 4153 -42 4171 -48 4186 -59 ct 
4201 -71 4210 -89 4214 -113 ct 4276 -113 l  4274 -97 4270 -82 4263 -68 ct 4256 -53 4247 -41 4235 -30 ct 
4223 -19 4209 -10 4192 -3 ct 4175 4 4155 7 4133 7 ct 4103 7 4079 2 4058 -8 ct 4038 -18 4021 -31 4008 -49 ct 
3996 -66 3986 -87 3981 -110 ct 3975 -134 3972 -159 3972 -187 ct 3972 -212 3974 -234 3978 -253 ct 
3982 -272 3988 -289 3996 -304 ct 4003 -318 4012 -330 4022 -340 ct 4032 -350 4043 -357 4055 -363 ct 
4067 -369 4079 -373 4092 -376 ct 4105 -379 4119 -380 4132 -380 ct 4153 -380 4171 -377 4188 -371 ct 
4204 -366 4218 -358 4230 -348 ct 4242 -338 4251 -326 4259 -312 ct 4266 -299 4271 -284 4274 -269 ct 
4211 -264 l  4207 -284 4199 -301 4186 -313 ct 4173 -325 4154 -331 4130 -331 ct 
4113 -331 4098 -328 4086 -323 ct 4074 -317 4065 -308 4057 -296 ct 4050 -284 4045 -269 4041 -251 ct 
4038 -233 4037 -212 4037 -188 ct p ef
4408 -173 m  4408 -154 4410 -136 4414 -119 ct 4418 -103 4424 -89 4433 -77 ct 
4441 -65 4452 -56 4465 -49 ct 4478 -43 4494 -40 4512 -40 ct 4539 -40 4561 -45 4577 -56 ct 
4593 -67 4604 -80 4610 -97 ct 4664 -81 l  4660 -71 4655 -61 4648 -50 ct 4641 -40 4632 -30 4620 -22 ct 
4608 -13 4593 -7 4576 -1 ct 4558 4 4537 7 4512 7 ct 4457 7 4415 -9 4386 -42 ct 
4357 -75 4343 -124 4343 -189 ct 4343 -224 4347 -253 4356 -278 ct 4365 -302 4377 -322 4392 -337 ct 
4407 -352 4425 -363 4445 -370 ct 4465 -376 4487 -380 4510 -380 ct 4541 -380 4567 -375 4588 -365 ct 
4609 -355 4626 -341 4639 -323 ct 4652 -305 4661 -284 4666 -260 ct 4672 -236 4674 -210 4674 -182 ct 
4674 -173 l  4408 -173 l  p
4610 -221 m  4607 -260 4597 -289 4580 -307 ct 4564 -325 4540 -334 4509 -334 ct 
4498 -334 4488 -332 4476 -329 ct 4465 -326 4454 -320 4445 -311 ct 4435 -303 4427 -291 4420 -277 ct 
4414 -262 4410 -244 4409 -221 ct 4610 -221 l  p ef
5037 -103 m  5037 -86 5034 -70 5027 -56 ct 5021 -43 5011 -31 4998 -22 ct 4985 -12 4969 -5 4950 0 ct 
4932 5 4910 7 4886 7 ct 4865 7 4845 5 4828 2 ct 4810 -1 4795 -7 4782 -14 ct 4769 -21 4758 -31 4749 -43 ct 
4740 -55 4734 -70 4730 -87 ct 4784 -98 l  4790 -78 4801 -64 4817 -54 ct 4834 -45 4857 -40 4886 -40 ct 
4899 -40 4912 -41 4923 -43 ct 4934 -45 4944 -48 4952 -52 ct 4960 -57 4966 -63 4970 -70 ct 
4975 -78 4977 -87 4977 -98 ct 4977 -109 4975 -119 4969 -126 ct 4964 -133 4957 -139 4947 -144 ct 
4938 -149 4926 -153 4913 -157 ct 4899 -160 4885 -164 4869 -169 ct 4854 -172 4839 -177 4824 -182 ct 
4809 -186 4796 -193 4784 -201 ct 4772 -209 4763 -219 4756 -230 ct 4748 -242 4744 -257 4744 -274 ct 
4744 -308 4757 -334 4781 -352 ct 4805 -370 4840 -379 4887 -379 ct 4928 -379 4961 -372 4985 -357 ct 
5009 -343 5025 -319 5031 -288 ct 4975 -281 l  4973 -290 4969 -298 4964 -305 ct 
4958 -311 4952 -317 4944 -321 ct 4936 -325 4927 -328 4917 -329 ct 4908 -331 4897 -332 4887 -332 ct 
4859 -332 4838 -328 4825 -319 ct 4811 -311 4805 -298 4805 -281 ct 4805 -271 4807 -262 4812 -256 ct 
4817 -249 4824 -244 4833 -239 ct 4842 -235 4852 -231 4865 -227 ct 4877 -224 4891 -220 4906 -217 ct 
4916 -214 4926 -212 4936 -209 ct 4946 -206 4957 -202 4966 -198 ct 4976 -194 4985 -190 4994 -184 ct 
5003 -179 5010 -172 5016 -165 ct 5023 -157 5028 -148 5032 -138 ct 5036 -128 5037 -116 5037 -103 ct 
p ef
pom
pum
6378 66013 t
90.0 r 434 -339 m  434 -318 430 -299 423 -280 ct 416 -262 406 -246 392 -233 ct 
378 -219 360 -209 340 -201 ct 319 -193 294 -189 266 -189 ct 124 -189 l  124 1 l 
58 1 l  58 -486 l  262 -486 l  291 -486 316 -482 337 -475 ct 359 -468 377 -458 391 -446 ct 
405 -433 416 -417 423 -399 ct 430 -381 434 -361 434 -339 ct p
367 -339 m  367 -370 358 -393 339 -409 ct 320 -425 292 -433 254 -433 ct 124 -433 l 
124 -241 l  257 -241 l  295 -241 323 -249 341 -266 ct 359 -283 367 -307 367 -339 ct 
p ef
619 7 m  581 7 553 -3 534 -23 ct 515 -43 506 -70 506 -105 ct 506 -129 511 -149 520 -165 ct 
529 -181 541 -194 557 -203 ct 572 -212 589 -218 608 -221 ct 627 -225 647 -226 667 -226 ct 
751 -226 l  751 -247 l  751 -263 749 -276 746 -287 ct 743 -298 738 -307 731 -313 ct 
724 -320 716 -325 706 -328 ct 696 -331 684 -333 671 -333 ct 659 -333 648 -332 638 -330 ct 
629 -328 620 -325 613 -321 ct 606 -316 600 -310 596 -303 ct 592 -295 589 -285 587 -273 ct 
523 -279 l  525 -294 529 -307 536 -320 ct 542 -332 551 -343 563 -352 ct 575 -361 590 -368 608 -373 ct 
625 -378 647 -380 672 -380 ct 719 -380 754 -369 778 -348 ct 802 -326 813 -295 813 -254 ct 
813 -94 l  813 -75 816 -61 821 -52 ct 826 -43 835 -38 848 -38 ct 852 -38 855 -38 859 -39 ct 
862 -39 865 -40 869 -40 ct 869 -2 l  861 0 853 1 845 2 ct 838 3 829 4 821 4 ct 
809 4 799 2 791 -1 ct 782 -4 775 -9 770 -15 ct 765 -21 761 -29 758 -39 ct 755 -48 754 -59 753 -71 ct 
751 -71 l  744 -59 737 -49 729 -39 ct 721 -29 712 -21 701 -14 ct 691 -7 679 -2 665 1 ct 
652 5 636 7 619 7 ct p
633 -40 m  653 -40 670 -43 685 -50 ct 700 -58 712 -67 722 -78 ct 731 -89 739 -101 744 -115 ct 
748 -128 751 -140 751 -153 ct 751 -183 l  683 -183 l  668 -183 653 -182 640 -180 ct 
626 -178 614 -174 604 -168 ct 593 -163 585 -155 579 -144 ct 573 -134 570 -120 570 -103 ct 
570 -83 575 -67 586 -56 ct 597 -45 613 -40 633 -40 ct p ef
922 0 m  922 -286 l  922 -294 922 -302 922 -310 ct 922 -318 922 -326 921 -334 ct 
921 -341 921 -349 921 -355 ct 920 -362 920 -368 920 -373 ct 978 -373 l  979 -368 979 -362 979 -355 ct 
980 -348 980 -341 980 -334 ct 981 -327 981 -320 981 -314 ct 981 -307 981 -302 981 -297 ct 
983 -297 l  987 -311 992 -324 997 -334 ct 1002 -344 1007 -353 1014 -360 ct 1021 -367 1029 -372 1038 -375 ct 
1047 -378 1058 -380 1071 -380 ct 1076 -380 1081 -380 1086 -379 ct 1090 -378 1094 -377 1096 -377 ct 
1096 -320 l  1092 -321 1087 -322 1082 -322 ct 1076 -323 1070 -323 1063 -323 ct 
1049 -323 1037 -320 1027 -313 ct 1017 -307 1009 -298 1002 -287 ct 996 -275 991 -262 988 -246 ct 
986 -230 984 -213 984 -194 ct 984 0 l  922 0 l  p ef
1302 -2 m  1293 0 1283 2 1273 4 ct 1263 5 1252 6 1239 6 ct 1190 6 1165 -22 1165 -79 ct 
1165 -328 l  1122 -328 l  1122 -373 l  1167 -373 l  1185 -456 l  1227 -456 l 
1227 -373 l  1296 -373 l  1296 -328 l  1227 -328 l  1227 -92 l  1227 -74 1230 -61 1236 -54 ct 
1241 -47 1252 -43 1266 -43 ct 1272 -43 1278 -44 1284 -45 ct 1289 -46 1295 -47 1302 -48 ct 
1302 -2 l  p ef
1370 -452 m  1370 -511 l  1432 -511 l  1432 -452 l  1370 -452 l  p
1370 1 m  1370 -372 l  1432 -372 l  1432 1 l  1370 1 l  p ef
1577 -188 m  1577 -167 1578 -147 1581 -129 ct 1585 -111 1590 -96 1597 -83 ct 
1605 -70 1614 -60 1626 -53 ct 1638 -46 1653 -42 1671 -42 ct 1693 -42 1711 -48 1726 -59 ct 
1741 -71 1750 -89 1754 -113 ct 1816 -113 l  1814 -97 1810 -82 1803 -68 ct 1796 -53 1787 -41 1775 -30 ct 
1763 -19 1749 -10 1732 -3 ct 1715 4 1695 7 1673 7 ct 1643 7 1619 2 1598 -8 ct 1578 -18 1561 -31 1548 -49 ct 
1536 -66 1526 -87 1521 -110 ct 1515 -134 1512 -159 1512 -187 ct 1512 -212 1514 -234 1518 -253 ct 
1522 -272 1528 -289 1536 -304 ct 1543 -318 1552 -330 1562 -340 ct 1572 -350 1583 -357 1595 -363 ct 
1607 -369 1619 -373 1632 -376 ct 1645 -379 1659 -380 1672 -380 ct 1693 -380 1711 -377 1728 -371 ct 
1744 -366 1758 -358 1770 -348 ct 1782 -338 1791 -326 1799 -312 ct 1806 -299 1811 -284 1814 -269 ct 
1751 -264 l  1747 -284 1739 -301 1726 -313 ct 1713 -325 1694 -331 1670 -331 ct 
1653 -331 1638 -328 1626 -323 ct 1614 -317 1605 -308 1597 -296 ct 1590 -284 1585 -269 1581 -251 ct 
1578 -233 1577 -212 1577 -188 ct p ef
1899 -452 m  1899 -511 l  1961 -511 l  1961 -452 l  1899 -452 l  p
1899 1 m  1899 -372 l  1961 -372 l  1961 1 l  1899 1 l  p ef
2374 -188 m  2374 -160 2372 -134 2367 -110 ct 2363 -86 2355 -65 2344 -48 ct 
2334 -31 2319 -17 2302 -8 ct 2284 2 2263 7 2237 7 ct 2210 7 2187 2 2167 -8 ct 2147 -18 2132 -35 2121 -58 ct 
2119 -58 l  2119 -57 2120 -55 2120 -52 ct 2120 -48 2120 -43 2120 -38 ct 2120 -32 2120 -26 2120 -19 ct 
2121 -12 2121 -6 2121 1 ct 2121 147 l  2059 147 l  2059 -297 l  2059 -306 2059 -315 2058 -323 ct 
2058 -332 2058 -339 2058 -346 ct 2058 -353 2057 -359 2057 -363 ct 2057 -368 2057 -371 2057 -371 ct 
2116 -371 l  2117 -370 2117 -368 2117 -364 ct 2118 -360 2118 -355 2118 -349 ct 
2119 -343 2119 -337 2119 -331 ct 2120 -324 2120 -318 2120 -312 ct 2121 -312 l 
2127 -324 2134 -335 2141 -343 ct 2148 -351 2157 -358 2166 -364 ct 2176 -369 2186 -373 2198 -375 ct 
2209 -378 2222 -379 2237 -379 ct 2263 -379 2284 -374 2302 -365 ct 2319 -356 2334 -343 2344 -326 ct 
2355 -310 2363 -290 2367 -266 ct 2372 -243 2374 -217 2374 -188 ct p
2309 -187 m  2309 -209 2307 -230 2305 -248 ct 2302 -266 2297 -281 2290 -293 ct 
2284 -306 2275 -315 2263 -321 ct 2252 -328 2238 -331 2221 -331 ct 2207 -331 2194 -329 2182 -325 ct 
2170 -321 2159 -314 2150 -303 ct 2141 -292 2134 -277 2129 -257 ct 2123 -238 2121 -213 2121 -182 ct 
2121 -155 2123 -133 2127 -115 ct 2132 -97 2138 -82 2146 -71 ct 2155 -59 2165 -51 2178 -46 ct 
2190 -41 2204 -39 2220 -39 ct 2237 -39 2252 -42 2263 -49 ct 2275 -56 2284 -65 2290 -78 ct 
2297 -90 2302 -106 2305 -124 ct 2307 -142 2309 -163 2309 -187 ct p ef
2551 7 m  2513 7 2485 -3 2466 -23 ct 2447 -43 2438 -70 2438 -105 ct 2438 -129 2443 -149 2452 -165 ct 
2461 -181 2473 -194 2489 -203 ct 2504 -212 2521 -218 2540 -221 ct 2559 -225 2579 -226 2599 -226 ct 
2683 -226 l  2683 -247 l  2683 -263 2681 -276 2678 -287 ct 2675 -298 2670 -307 2663 -313 ct 
2656 -320 2648 -325 2638 -328 ct 2628 -331 2616 -333 2603 -333 ct 2591 -333 2580 -332 2570 -330 ct 
2561 -328 2552 -325 2545 -321 ct 2538 -316 2532 -310 2528 -303 ct 2524 -295 2521 -285 2519 -273 ct 
2455 -279 l  2457 -294 2461 -307 2468 -320 ct 2474 -332 2483 -343 2495 -352 ct 
2507 -361 2522 -368 2540 -373 ct 2557 -378 2579 -380 2604 -380 ct 2651 -380 2686 -369 2710 -348 ct 
2734 -326 2745 -295 2745 -254 ct 2745 -94 l  2745 -75 2748 -61 2753 -52 ct 2758 -43 2767 -38 2780 -38 ct 
2784 -38 2787 -38 2791 -39 ct 2794 -39 2797 -40 2801 -40 ct 2801 -2 l  2793 0 2785 1 2777 2 ct 
2770 3 2761 4 2753 4 ct 2741 4 2731 2 2723 -1 ct 2714 -4 2707 -9 2702 -15 ct 2697 -21 2693 -29 2690 -39 ct 
2687 -48 2686 -59 2685 -71 ct 2683 -71 l  2676 -59 2669 -49 2661 -39 ct 2653 -29 2644 -21 2633 -14 ct 
2623 -7 2611 -2 2597 1 ct 2584 5 2568 7 2551 7 ct p
2565 -40 m  2585 -40 2602 -43 2617 -50 ct 2632 -58 2644 -67 2654 -78 ct 2663 -89 2671 -101 2676 -115 ct 
2680 -128 2683 -140 2683 -153 ct 2683 -183 l  2615 -183 l  2600 -183 2585 -182 2572 -180 ct 
2558 -178 2546 -174 2536 -168 ct 2525 -163 2517 -155 2511 -144 ct 2505 -134 2502 -120 2502 -103 ct 
2502 -83 2507 -67 2518 -56 ct 2529 -45 2545 -40 2565 -40 ct p ef
3089 0 m  3089 -237 l  3089 -255 3088 -270 3085 -282 ct 3083 -294 3078 -304 3073 -312 ct 
3067 -319 3059 -324 3049 -327 ct 3039 -331 3027 -332 3013 -332 ct 2998 -332 2985 -329 2973 -324 ct 
2961 -319 2951 -312 2942 -302 ct 2934 -292 2928 -280 2923 -266 ct 2918 -251 2916 -235 2916 -216 ct 
2916 0 l  2854 0 l  2854 -294 l  2854 -302 2854 -310 2854 -319 ct 2854 -328 2854 -336 2853 -344 ct 
2853 -351 2853 -358 2853 -363 ct 2852 -369 2852 -372 2852 -372 ct 2910 -372 l 
2911 -371 2911 -368 2911 -363 ct 2911 -358 2912 -352 2912 -346 ct 2912 -339 2913 -333 2913 -326 ct 
2913 -319 2913 -314 2913 -309 ct 2914 -309 l  2920 -320 2927 -330 2934 -339 ct 
2941 -347 2949 -355 2959 -361 ct 2968 -367 2979 -372 2991 -375 ct 3003 -378 3017 -380 3034 -380 ct 
3054 -380 3072 -377 3087 -372 ct 3102 -367 3114 -360 3124 -349 ct 3134 -338 3141 -325 3145 -308 ct 
3150 -291 3152 -272 3152 -249 ct 3152 0 l  3089 0 l  p ef
3392 -2 m  3383 0 3373 2 3363 4 ct 3353 5 3342 6 3329 6 ct 3280 6 3255 -22 3255 -79 ct 
3255 -328 l  3212 -328 l  3212 -373 l  3257 -373 l  3275 -456 l  3317 -456 l 
3317 -373 l  3386 -373 l  3386 -328 l  3317 -328 l  3317 -92 l  3317 -74 3320 -61 3326 -54 ct 
3331 -47 3342 -43 3356 -43 ct 3362 -43 3368 -44 3374 -45 ct 3379 -46 3385 -47 3392 -48 ct 
3392 -2 l  p ef
3740 -103 m  3740 -86 3737 -70 3730 -56 ct 3724 -43 3714 -31 3701 -22 ct 3688 -12 3672 -5 3653 0 ct 
3635 5 3613 7 3589 7 ct 3568 7 3548 5 3531 2 ct 3513 -1 3498 -7 3485 -14 ct 3472 -21 3461 -31 3452 -43 ct 
3443 -55 3437 -70 3433 -87 ct 3487 -98 l  3493 -78 3504 -64 3520 -54 ct 3537 -45 3560 -40 3589 -40 ct 
3602 -40 3615 -41 3626 -43 ct 3637 -45 3647 -48 3655 -52 ct 3663 -57 3669 -63 3673 -70 ct 
3678 -78 3680 -87 3680 -98 ct 3680 -109 3678 -119 3672 -126 ct 3667 -133 3660 -139 3650 -144 ct 
3641 -149 3629 -153 3616 -157 ct 3602 -160 3588 -164 3572 -169 ct 3557 -172 3542 -177 3527 -182 ct 
3512 -186 3499 -193 3487 -201 ct 3475 -209 3466 -219 3459 -230 ct 3451 -242 3447 -257 3447 -274 ct 
3447 -308 3460 -334 3484 -352 ct 3508 -370 3543 -379 3590 -379 ct 3631 -379 3664 -372 3688 -357 ct 
3712 -343 3728 -319 3734 -288 ct 3678 -281 l  3676 -290 3672 -298 3667 -305 ct 
3661 -311 3655 -317 3647 -321 ct 3639 -325 3630 -328 3620 -329 ct 3611 -331 3600 -332 3590 -332 ct 
3562 -332 3541 -328 3528 -319 ct 3514 -311 3508 -298 3508 -281 ct 3508 -271 3510 -262 3515 -256 ct 
3520 -249 3527 -244 3536 -239 ct 3545 -235 3555 -231 3568 -227 ct 3580 -224 3594 -220 3609 -217 ct 
3619 -214 3629 -212 3639 -209 ct 3649 -206 3660 -202 3669 -198 ct 3679 -194 3688 -190 3697 -184 ct 
3706 -179 3713 -172 3719 -165 ct 3726 -157 3731 -148 3735 -138 ct 3739 -128 3740 -116 3740 -103 ct 
p ef
pom
0 12701 t 
pom
count op_count sub {pop} repeat countdictstack dict_count sub {end} repeat b4_inc_state restore
%%PageTrailer
%%Trailer
%%EOF
