<?xml version="1.0" encoding="UTF-8" standalone="no"?>
<!-- Created with Inkscape (http://www.inkscape.org/) -->

<svg
   xmlns:dc="http://purl.org/dc/elements/1.1/"
   xmlns:cc="http://creativecommons.org/ns#"
   xmlns:rdf="http://www.w3.org/1999/02/22-rdf-syntax-ns#"
   xmlns:svg="http://www.w3.org/2000/svg"
   xmlns="http://www.w3.org/2000/svg"
   xmlns:sodipodi="http://sodipodi.sourceforge.net/DTD/sodipodi-0.dtd"
   xmlns:inkscape="http://www.inkscape.org/namespaces/inkscape"
   width="28.504448mm"
   height="28.504448mm"
   viewBox="0 0 101.00001 101.00001"
   id="svg2"
   version="1.1"
   inkscape:version="0.91 r13725"
   sodipodi:docname="img4.svg">
  <defs
     id="defs4" />
  <sodipodi:namedview
     id="base"
     pagecolor="#ffffff"
     bordercolor="#666666"
     borderopacity="1.0"
     inkscape:pageopacity="0.0"
     inkscape:pageshadow="2"
     inkscape:zoom="3.959798"
     inkscape:cx="102.18395"
     inkscape:cy="49.742199"
     inkscape:document-units="px"
     inkscape:current-layer="g4150"
     showgrid="false"
     fit-margin-top="0"
     fit-margin-left="0"
     fit-margin-right="0"
     fit-margin-bottom="0"
     inkscape:snap-object-midpoints="false"
     inkscape:snap-text-baseline="false"
     inkscape:snap-bbox="false"
     inkscape:snap-global="true"
     inkscape:snap-bbox-midpoints="true"
     inkscape:snap-bbox-edge-midpoints="false"
     inkscape:bbox-nodes="false"
     inkscape:bbox-paths="false"
     showguides="true"
     inkscape:guide-bbox="true"
     inkscape:window-width="1600"
     inkscape:window-height="873"
     inkscape:window-x="0"
     inkscape:window-y="27"
     inkscape:window-maximized="1">
    <sodipodi:guide
       position="-61.936161,67.7067"
       orientation="1,0"
       id="guide4155" />
  </sodipodi:namedview>
  <metadata
     id="metadata7">
    <rdf:RDF>
      <cc:Work
         rdf:about="">
        <dc:format>image/svg+xml</dc:format>
        <dc:type
           rdf:resource="http://purl.org/dc/dcmitype/StillImage" />
        <dc:title />
      </cc:Work>
    </rdf:RDF>
  </metadata>
  <g
     inkscape:label="Layer 1"
     inkscape:groupmode="layer"
     id="layer1"
     transform="translate(-48.07143,-87.576492)">
    <g
       id="g4150">
      <rect
         y="88.076492"
         x="48.57143"
         height="100"
         width="100"
         id="rect3336"
         style="fill:none;fill-opacity:1;fill-rule:evenodd;stroke:#000000;stroke-width:1px;stroke-linecap:butt;stroke-linejoin:miter;stroke-opacity:1" />
      <path
         style="fill:#ff0000;fill-rule:evenodd;stroke:#000000;stroke-width:1px;stroke-linecap:butt;stroke-linejoin:miter;stroke-opacity:1;fill-opacity:0.66666669"
         d="m 124.33795,112.56253 c -4.61234,-1.96448 -4.48232,-9.12906 -9.88815,-9.93675 -9.4514,-2.09203 -19.217108,-0.89618 -28.767188,-2.15578 -6.284519,-0.33831 -12.800736,-1.020985 -18.936979,0.60715 -4.954662,2.78499 -6.761667,8.61542 -8.631864,13.60664 -0.08806,5.61083 7.322289,4.11416 10.909951,5.36315 7.79524,3.44943 13.388868,10.61111 17.104266,18.09334 3.624662,6.57368 2.55105,14.23176 3.882832,21.3433 3.918882,6.3423 11.402132,8.73476 17.239672,12.82026 3.47371,2.02627 9.48165,-0.0443 8.2495,-4.75922 -0.61479,-5.76501 -3.41976,-11.98308 -0.18296,-17.4868 2.99681,-5.90272 9.19396,-8.79959 14.50975,-12.17942 6.05385,-4.34961 10.45422,-11.4947 10.61957,-19.04183 -0.0559,-3.57213 -1.88838,-8.54921 -6.19532,-8.33973 -3.411,0.14847 -6.41944,2.6947 -9.91308,2.06569 z"
         id="path4213"
         inkscape:connector-curvature="0" />
      <text
         sodipodi:linespacing="125%"
         id="text4146-5"
         y="121.22472"
         x="104.33617"
         style="font-style:normal;font-variant:normal;font-weight:normal;font-stretch:normal;font-size:29.99999619px;line-height:125%;font-family:serif;-inkscape-font-specification:serif;text-align:center;letter-spacing:0px;word-spacing:0px;writing-mode:tb-rl;text-anchor:middle;fill:#000000;fill-opacity:1;stroke:none;stroke-width:1px;stroke-linecap:butt;stroke-linejoin:miter;stroke-opacity:1"
         xml:space="preserve"><tspan
           y="89.94149"
           x="135.61938"
           id="tspan4148-9"
           sodipodi:role="line">C</tspan></text>
      <path
         style="fill:#00ff00;fill-opacity:0.66666669;fill-rule:evenodd;stroke:#000000;stroke-width:1px;stroke-linecap:butt;stroke-linejoin:miter;stroke-opacity:1"
         d="m 71.557476,149.68563 c 4.299483,-4.7538 11.174552,-4.66315 17.074689,-4.98968 3.29435,-0.21893 6.698483,-0.67789 9.595478,-2.37411 2.474717,-2.65722 1.794977,-6.93462 -0.66898,-9.35477 -3.212833,-3.68542 -7.623183,-6.11092 -11.986396,-8.16385 -5.248941,-1.72848 -10.833811,1.65003 -13.27436,6.28572 -1.174722,3.13717 -3.710096,5.39877 -6.767059,6.69093 -4.024147,1.94327 -9.211285,3.80766 -10.330025,8.69659 -0.997195,5.60202 3.110732,11.03876 7.996429,13.34836 3.924697,2.01374 9.96659,0.47167 10.967694,-4.22346 0.311264,-2.26519 -0.955266,-4.46242 -2.60747,-5.91573 z"
         id="path4279"
         inkscape:connector-curvature="0" />
      <circle
         style="fill:#0000ff;fill-opacity:0.66666667;stroke:#000000;stroke-opacity:1"
         id="path4240"
         cx="71.683746"
         cy="141.73068"
         r="3.4092648" />
      <text
         sodipodi:linespacing="125%"
         id="text4146-5-3"
         y="139.48744"
         x="61.143059"
         style="font-style:normal;font-variant:normal;font-weight:normal;font-stretch:normal;font-size:29.99999619px;line-height:125%;font-family:serif;-inkscape-font-specification:serif;text-align:center;letter-spacing:0px;word-spacing:0px;writing-mode:tb-rl;text-anchor:middle;fill:#000000;fill-opacity:1;stroke:none;stroke-width:1px;stroke-linecap:butt;stroke-linejoin:miter;stroke-opacity:1"
         xml:space="preserve"><tspan
           y="57.102451"
           x="143.52805"
           id="tspan4148-9-6"
           sodipodi:role="line">f</tspan></text>
    </g>
  </g>
</svg>
